0	2	42.961356900489655	162915.76709039602	264.24356011748154	1330.0685101284037	1953.9010479896942	-0.6614763687904175	0.3010696968716997	0.7023193808528281	5241000.0	3.89e-06	6.369e-07	2.252e-09	1.439e-09	5.468e-11	3.693e-06	3.713e-09	2.388e-06	2.148e-06	4.586e-05	2.276e-05	0.0001744	0.9997	73030.0	0.0002849	4.928e-05	1.742e-07	1.054e-07	8.22e-09	0.0005753	6.088e-07	1.527e-06	1.522e-06	0.01725	0.008591	0.0007384	0.02972	0.0	0.9428	888500.0	4.802e-05	8.49e-06	3.002e-08	1.777e-08	2.054e-10	1.449e-05	1.822e-08	1.806e-06	1.668e-06	0.0006351	0.0003166	0.0006659	2.488e-05	0.0072	0.0	0.0	0.0	0.9911	4.101	0.003255	0.2464	0.0008713	3.599e-05	0.0006716	0.7488	2.368e-09	2.361e-05	1.779e-06	6.101e-08	0.0	0.0	0.0	1.317	1.0	0.0
1	1	18.05838966639416	576246.5598504543	1599.603696366277	804.5096073014861	1368.7391466675863	-0.07963244380870171	0.8747724226342446	-0.20945409870476905	0.2141	0.0002266	3.438e-05	1.216e-07	8.38e-08	1.124e-05	0.7046	0.001472	0.01399	0.01242	0.1793	0.08799	0.0	0.0	131.1	8.67e-06	1.385e-06	4.897e-09	3.262e-09	4.244e-07	0.02824	3.992e-05	9.957e-05	9.436e-05	0.2143	0.1062	0.6511	0.0	0.0	0.0	1215.0	1.332e-05	2.168e-06	7.666e-09	5.017e-09	6.518e-07	0.0442	5.613e-05	5.511e-06	3.839e-06	0.6323	0.3139	0.009515	1.097e-06	0.0	0.0	0.0	0.0	0.0	648.4	1.631e-10	1.568e-08	5.543e-11	1.723e-12	4.254e-09	0.0003206	2.26e-10	1.129e-12	5.24e-07	2.413e-08	0.8489	0.1491	0.001682	1.317	1.0	0.0
3	2	47.233253360135016	411160.083513065	166.58154198521493	244.92600758177792	613.9745580024808	-0.20995296338566782	0.35487230774503353	-1.4288693178277723	149.7	0.05892	0.007277	2.574e-05	2.179e-05	5.186e-08	0.0	5.546e-05	0.5766	0.3563	0.0005196	0.0002184	9.179e-05	0.0	12810000.0	4.942e-08	6.78e-09	2.397e-11	1.831e-11	2.455e-11	5.896e-07	2.292e-09	4.094e-06	3.464e-06	1.692e-06	7.98e-07	2.692e-09	8.559e-08	0.0	1.0	69820000.0	2.788e-07	4.047e-08	1.431e-10	1.031e-10	2.997e-14	1.485e-09	7.978e-11	2.07e-06	1.802e-06	5.326e-09	2.582e-09	5.574e-07	2.346e-09	1.612e-06	0.2773	0.0	0.0	0.7227	0.791	0.01403	0.9733	0.003442	0.0001549	0.002891	0.006094	5.642e-09	0.0001017	4.478e-09	2.062e-10	0.0	0.0	0.0	1.32	0.9978	0.002167
4	3	36.13350431791136	-331454.56932938355	1864.5053175552482	1004.4564950488417	1129.1962500900725	1.3371712150020345	0.7768965944371513	-0.707600672262853	36.75	3.943e-05	0.04897	0.0001732	1.486e-08	1.929e-06	0.1108	0.0002241	0.000394	0.000365	0.5631	0.2759	0.0	0.0	257.1	2.511e-05	0.005483	1.939e-05	9.458e-09	1.229e-06	0.07845	0.000128	4.263e-06	6.244e-06	0.5957	0.2942	0.02598	0.0	0.0	0.0	296.1	1.918e-05	0.006364	2.25e-05	7.225e-09	9.385e-07	0.06164	9.156e-05	0.0001296	0.0001096	0.5502	0.2724	0.1083	0.0006952	0.0	0.0	0.0	0.0	0.0	1751.0	1.721e-11	0.002882	1.019e-05	1.82e-13	4.49e-10	3.397e-05	2.385e-11	1.191e-13	5.552e-08	2.557e-09	0.5843	0.2196	0.1932	1.317	1.0	0.0
6	3	48.22007923958883	-554793.7879138784	1819.3472625858135	549.8292509042012	1699.1881202835043	-0.6745212458200996	-0.8392732311668311	-1.5332596210503495	16.63	8.458e-05	0.1316	0.0004653	3.188e-08	4.139e-06	0.1731	0.0004819	0.001524	0.001287	0.4669	0.2246	0.0	0.0	7627000.0	6.712e-10	8.118e-07	2.871e-09	2.526e-13	3.283e-11	2.277e-06	2.407e-09	1.279e-07	1.15e-07	4.758e-05	2.367e-05	9.019e-05	0.0	0.9998	0.0	463000000.0	8.846e-11	2.972e-08	1.051e-10	3.325e-14	4.326e-12	3.1e-07	8.049e-11	1.342e-06	1.231e-06	0.0001339	6.688e-05	5.152e-05	3.081e-05	0.0001441	0.2902	0.2402	0.0001887	0.469	1239.0	1.337e-11	0.007077	2.503e-05	1.414e-13	3.489e-10	2.638e-05	1.853e-11	9.256e-14	4.312e-08	1.986e-09	0.9918	0.001048	0.0	1.317	1.0	0.0
8	2	34.37738869230824	-63140.86532425997	1785.2953424756302	637.2990374543806	649.2254354536482	-1.3015612300243253	0.5057068307375219	-0.10597308858489729	98.16	0.03144	0.004592	1.624e-05	1.163e-05	3.239e-06	0.1621	0.0003901	4.217e-07	3.346e-06	0.5394	0.262	0.0	0.0	42.0	0.1928	0.02816	9.959e-05	7.133e-05	2.59e-06	0.1298	0.0003615	5.084e-08	2.651e-06	0.4366	0.2121	4.063e-17	0.0	0.0	0.0	20.03	0.5172	0.07576	0.0002679	0.0001914	1.049e-06	0.05339	0.0002685	2.955e-05	2.874e-05	0.2374	0.1154	3.081e-09	7.248e-09	0.0	0.0	0.0	0.0	0.0	2468.0	1.73e-05	0.001771	6.263e-06	1.915e-07	3.573e-06	0.01008	3.301e-10	1.256e-07	4.795e-08	1.928e-09	0.1498	0.3775	0.4608	1.317	1.0	0.0
11	4	21.4964396154525	-390334.44368912117	608.9175801090131	705.2234922490037	1147.87756018242	0.5877112808637657	-1.1903553410974363	0.92934370652958	13.79	0.3159	4.699e-06	1.662e-08	0.0001169	1.564e-06	0.0859	0.0002915	0.004465	0.003948	0.3667	0.179	0.04358	0.0	709.7	0.001658	2.785e-06	9.847e-09	6.141e-07	8.593e-07	0.05662	8.562e-05	0.001081	0.001002	0.5682	0.2814	0.01576	0.07425	0.0	0.0	8794000.0	9.617e-07	5.228e-11	1.849e-13	3.557e-10	1.521e-11	1.056e-06	8.236e-10	2.64e-06	2.418e-06	1.839e-05	9.151e-06	9.155e-05	1.5e-06	0.000226	0.2874	0.0	0.0	0.7123	3.544	0.001886	7.705e-07	2.725e-09	2.087e-05	0.0003896	0.9977	1.626e-08	1.368e-05	2.754e-05	1.241e-06	0.0	0.0	0.0	1.317	1.0	0.0
12	1	5.5213905804354155	-252749.27232823893	123.68149582816817	473.5792347056532	1076.1057014703883	1.118327726846132	1.3027037677789566	0.7076585486355862	884.7	6.724e-06	9.076e-07	3.21e-09	2.535e-09	3.29e-07	0.006466	2.975e-05	3.718e-06	4.746e-06	0.01694	0.007946	0.008177	0.9604	3205.0	1.964e-07	2.728e-08	9.647e-11	7.287e-11	9.721e-09	0.0003906	1.406e-06	2.671e-06	2.053e-06	0.0005831	0.000277	2.199e-08	0.01476	0.0	0.984	74470.0	1.074e-08	1.687e-09	5.965e-12	4.042e-12	5.257e-10	3.421e-05	5.296e-08	1.534e-06	1.32e-06	0.0008283	0.0004097	0.0002095	0.002147	0.008724	0.01681	0.1572	0.0357	0.7779	1.515e-05	0.008871	0.5548	0.001963	9.326e-05	0.2305	0.191	0.01225	6.128e-05	0.0003567	1.643e-05	0.0	0.0	0.0	1.329	0.991	0.009025
13	4	40.420962455941634	-42609.86368810432	1232.9828235628204	342.1093340709185	572.1382817111273	-0.5290456637532985	0.657036741937282	-1.2639339675413646	6.892	0.1771	7.184e-05	2.541e-07	6.557e-05	2.793e-05	1.057e-05	0.0003835	1.108e-05	5.005e-05	0.5716	0.2507	0.0	0.0	9.398	0.7886	1.207e-05	4.268e-08	0.0002917	4.538e-06	0.0005235	0.0008941	1.758e-05	2.285e-05	0.144	0.06557	2.06e-08	0.0	0.0	0.0	2010.0	0.006711	8.519e-10	3.012e-12	2.483e-06	2.939e-10	1.441e-05	1.986e-06	3.327e-07	2.757e-07	7.587e-06	3.661e-06	0.0016	0.005276	0.0	0.9864	0.0	0.0	0.0	796.1	5.398e-05	1.964e-09	6.946e-12	5.974e-07	1.115e-05	0.03097	4.723e-10	3.918e-07	8.617e-08	3.107e-09	0.09473	0.5104	0.3639	1.317	1.0	0.0
14	1	37.19850674071905	-312618.3787670467	80.71819247435839	237.7813681578219	1823.7319014962864	0.6902269034954704	-0.6862236462617166	1.383167886354956	102700000.0	9.583e-12	1.166e-12	4.126e-15	3.615e-15	4.69e-13	0.0	5.468e-12	3.519e-06	2.284e-06	5.579e-09	2.319e-09	2.537e-08	1.0	4161000.0	1.566e-09	2.656e-10	9.39e-13	5.895e-13	7.662e-11	5.34e-06	5.309e-09	1.387e-06	1.241e-06	0.0001405	6.992e-05	0.000198	0.0006598	0.1072	0.8918	58480000.0	3.211e-10	5.97e-11	2.111e-13	1.208e-13	1.57e-11	1.12e-06	5.8e-10	8.724e-07	7.986e-07	0.0001143	5.705e-05	7.9e-05	2.832e-05	0.0002967	0.3666	0.0	0.0001398	0.6327	1.808e-07	0.01166	0.6679	0.002364	0.0001221	0.3018	0.0	0.01603	8.036e-05	4.217e-14	1.942e-15	0.0	0.0	0.0	1.318	0.9995	0.0005112
17	1	26.03514873265751	-399534.51663934474	956.1352158457883	1550.5260125762593	1998.2248062269207	-0.6757092140760562	-0.6101930624888818	0.7840623527629154	873.0	5.856e-06	9.702e-07	3.431e-09	2.204e-09	2.865e-07	0.0197	2.254e-05	0.002055	0.001853	0.3223	0.1602	0.4938	0.0	1987.0	6.904e-06	1.16e-06	4.103e-09	2.599e-09	3.377e-07	0.02343	2.459e-05	0.0001317	0.0001257	0.5284	0.2629	0.0003107	0.1847	0.0	0.0	3698000.0	5.885e-10	1.011e-10	3.574e-13	2.214e-13	2.879e-11	2.018e-06	1.85e-09	9.829e-06	8.996e-06	7.43e-05	3.701e-05	2.737e-05	2.624e-06	0.0005734	0.0	0.0	0.0	0.9993	0.06278	5.218e-07	4.656e-05	1.646e-07	5.509e-09	1.361e-05	0.9982	7.231e-07	3.611e-09	0.001631	7.513e-05	0.0	0.0	0.0	1.317	1.0	0.0
18	3	17.854193652564657	-915391.5985346872	1364.2157865561949	700.6842678836173	1289.5273393084708	0.4501723286525543	-0.2826796311317423	0.45810307659891336	38.04	4.556e-05	0.01007	3.561e-05	1.717e-08	2.229e-06	0.1207	0.0002641	0.0006144	0.0005575	0.5831	0.2846	0.0	0.0	778.0	1.585e-05	0.0002831	1.001e-06	5.97e-09	7.756e-07	0.05215	6.957e-05	2.626e-05	2.075e-05	0.6189	0.307	0.02146	0.0	0.0	0.0	820900.0	1.927e-09	1.072e-06	3.79e-09	7.247e-13	9.436e-11	6.451e-06	7.825e-09	7.906e-08	6.988e-08	8.342e-05	4.144e-05	0.0003854	1.453e-06	2.9e-07	0.9995	0.0	0.0	0.0	255.2	3.697e-10	0.003531	1.249e-05	3.905e-12	9.644e-09	0.0007229	5.123e-10	2.559e-12	1.182e-06	5.442e-08	0.9957	7.59e-06	0.0	1.317	1.0	0.0
20	4	15.123877604169204	343896.7237686536	23.61514315692473	1157.0193119429225	1449.2346949619568	1.2976560737073388	0.6292944280748176	-1.3166137565485483	878.2	0.001536	1.666e-06	5.89e-09	5.686e-07	5.134e-07	0.03389	5.054e-05	5.882e-07	4.28e-07	0.3458	0.1713	0.4262	0.02125	110100.0	2.335e-05	1.048e-08	3.707e-11	8.639e-09	3.126e-09	0.0002135	2.591e-07	1.227e-06	1.12e-06	0.00325	0.001615	1.088e-06	0.0113	0.0	0.9836	918500.0	9.226e-06	1.085e-10	3.838e-13	3.413e-09	2.882e-11	2.054e-06	5.84e-10	9.962e-07	9.07e-07	3.914e-05	1.953e-05	0.003448	0.004579	0.02706	0.03861	0.07082	0.1118	0.7436	0.0003099	0.8212	0.0006826	2.441e-06	0.008757	0.1635	0.0	2.201e-05	0.005793	0.0	0.0	0.0	0.0	0.0	1.417	0.9293	0.0707
21	4	17.116089805374326	442659.27734281984	935.2327562287369	1478.8144824445446	1911.8894413975215	1.3722570563807905	0.08207542351233132	-0.5815620074057375	1566.0	0.0001573	1.875e-06	6.63e-09	5.846e-08	5.574e-07	0.03815	4.603e-05	1.724e-05	1.347e-05	0.6375	0.3168	0.007387	0.0	74810.0	8.622e-05	2.374e-09	8.396e-12	3.19e-08	6.807e-10	4.76e-05	3.511e-08	1.336e-05	1.225e-05	0.0007763	0.0003866	1.476e-07	0.02599	0.0	0.9727	92650.0	8.692e-05	2.145e-10	7.586e-13	3.216e-08	6.004e-11	4.253e-06	8.731e-09	4.206e-06	3.849e-06	3.603e-06	1.796e-06	0.0002647	0.001695	0.05517	0.0	0.0	0.0	0.9428	3.563	0.001709	1.856e-06	6.565e-09	1.891e-05	0.0003534	0.9978	3.67e-08	1.24e-05	6.571e-05	3e-06	0.0	0.0	0.0	1.317	1.0	0.0
24	3	8.517329393185573	-177154.18089851062	800.4354639472602	1027.2651093664335	1511.4763108343905	-0.8494601487223749	0.10798750500778143	1.0848137113322909	266.5	2.896e-05	0.0002599	9.192e-07	1.091e-08	1.417e-06	0.091	0.0001458	1.291e-05	9.585e-06	0.5588	0.2761	0.07365	0.0	1039.0	2.862e-06	0.0001873	6.624e-07	1.075e-09	1.404e-07	0.009648	1.139e-05	1.775e-05	1.755e-05	0.178	0.08846	0.06248	0.6612	0.0	0.0	40490.0	1.559e-07	4.394e-06	1.554e-08	5.864e-11	7.626e-09	0.0005282	5.675e-07	8.953e-06	8.181e-06	0.01425	0.007089	0.001486	5.479e-05	0.02081	0.0	0.0	0.0	0.9558	0.6154	4.278e-07	0.1955	0.0006914	4.516e-09	1.116e-05	0.8024	5.928e-07	2.961e-09	0.001311	6.039e-05	0.0	0.0	0.0	1.317	1.0	0.0
25	2	24.905605859365366	-852795.69669708	1199.6988898582792	760.9827467718615	1671.7639286505892	0.847517813323547	1.1423145461345712	-1.250685683963458	30.28	0.1941	0.02917	0.0001031	7.181e-05	1.686e-06	0.09648	0.0002575	0.0009129	0.0008246	0.4552	0.2229	0.0	0.0	211100.0	1.615e-05	2.732e-06	9.659e-09	5.98e-09	3.516e-09	0.0002434	2.751e-07	2.377e-06	2.242e-06	0.00531	0.002641	0.0005062	0.0003899	0.9909	0.0	63220000.0	3.247e-07	6.106e-08	2.159e-10	1.201e-10	5.346e-12	3.814e-07	1.44e-10	2.096e-06	1.925e-06	3.429e-05	1.711e-05	0.0001614	1.237e-05	0.0002967	0.343	0.02838	0.01506	0.613	113.5	0.0001404	0.01359	4.804e-05	1.554e-06	2.901e-05	0.08106	1.617e-09	1.019e-06	1.264e-06	5.599e-08	0.9051	0.0	0.0	1.317	1.0	0.0
26	3	30.01195155835466	-6397.120059411041	346.3977199534714	995.2062256849144	1074.2194359877608	0.17145166240367793	-0.7685115392594348	1.191921608166815	172800.0	1.199e-09	1.059e-05	3.746e-08	4.508e-13	5.871e-11	3.751e-06	6.198e-09	3.623e-06	3.243e-06	3.778e-05	1.865e-05	0.002417	0.9975	109900.0	2.917e-08	1.414e-05	5.001e-08	1.098e-11	1.427e-09	9.27e-05	1.434e-07	3.347e-06	2.913e-06	0.0008562	0.0004235	3.851e-08	0.003937	0.0	0.9947	61250.0	1.791e-07	8.033e-06	2.841e-08	6.747e-11	8.764e-09	0.0005719	8.699e-07	3.128e-06	3.093e-06	0.004935	0.002442	7.488e-07	1.959e-12	0.002668	0.0	0.0	0.0	0.9894	0.6624	1.588e-08	0.976	0.003451	1.675e-10	4.141e-07	0.02055	2.2e-08	1.099e-10	3.357e-05	1.546e-06	0.0	0.0	0.0	1.317	1.0	0.0
27	1	10.42392510430198	560675.76942953	119.65918428289915	1509.4919765556212	1631.6862090119464	-0.11494430121258836	0.47079743568502685	0.23912099887201888	220500.0	1.065e-09	1.764e-10	6.239e-13	3.982e-13	5.237e-11	3.608e-06	4.313e-09	1.693e-06	1.522e-06	1.464e-06	7.275e-07	0.009957	0.99	7793.0	2.508e-06	4.185e-07	1.48e-09	9.44e-10	1.227e-07	0.008477	9.282e-06	4.157e-07	6.654e-07	0.1679	0.08352	8.428e-06	0.01873	0.0	0.7213	65100.0	1.335e-08	2.253e-09	7.966e-12	4.989e-12	6.568e-10	4.572e-05	4.911e-08	1.477e-06	1.366e-06	0.001279	0.0006363	0.000188	3.08e-11	0.04693	0.0	0.0	0.0	0.9509	3.824e-06	0.009598	0.5964	0.00211	0.0001009	0.2494	0.1289	0.01325	6.629e-05	0.0002473	1.139e-05	0.0	0.0	0.0	1.321	0.9971	0.002898
28	3	46.22948033775036	130658.84624954825	1826.4736520256617	1629.5893352892774	1861.555356271875	0.11003235329892913	0.9988758951231458	0.130754184480236	17.9	4.36e-06	0.4018	0.001421	1.635e-09	2.139e-07	0.01481	1.643e-05	0.0005053	0.0004488	0.388	0.193	0.0	0.0	168.2	6.366e-06	0.04458	0.0001576	2.396e-09	3.114e-07	0.02167	2.201e-05	0.0001824	0.0001594	0.6085	0.3029	0.02181	0.0	0.0	0.0	2967.0	7.25e-06	0.0001458	5.155e-07	2.729e-09	3.546e-07	0.02475	2.416e-05	1.891e-08	9.421e-08	0.6507	0.324	0.0004031	1.341e-08	3.198e-09	0.0	0.0	0.0	0.0	20.99	8.615e-10	0.3854	0.001363	9.109e-12	2.248e-08	0.0017	1.194e-09	5.963e-12	2.778e-06	1.279e-07	0.6115	1.592e-05	0.0	1.317	1.0	0.0
29	2	29.663130425475224	-254587.66457327362	239.7578125905418	127.15005775278087	267.9995743456871	0.9938334720227364	-0.2915369562512007	-1.2260803908732592	1.237	0.8875	0.09122	0.0003232	0.0003281	2.729e-05	0.0	0.002467	0.01808	1.554e-05	3.304e-06	4.437e-07	0.0	0.0	0.8766	0.8646	0.09402	0.0003328	0.0003199	8.79e-05	0.0	0.001167	0.03496	0.003586	0.0008156	0.0001052	8.519e-08	0.0	0.0	0.0	3746000.0	1.037e-06	1.302e-07	4.606e-10	3.835e-10	1.591e-13	5.423e-13	7.193e-10	6.607e-08	4.285e-08	3.141e-09	1.357e-09	4.162e-07	1.039e-07	1.151e-11	0.662	0.02134	0.3166	0.0	2.548	0.002307	0.1715	0.0006067	2.55e-05	0.000476	0.3848	4.889e-09	1.674e-05	3.251e-06	1.39e-07	0.3713	0.06899	0.0	1.317	1.0	0.0
30	2	21.379093931624677	-591156.4699000707	810.9626527621372	263.23823360050216	1425.6841320881465	0.07801246149074048	1.2304281705531985	0.7673574856081848	2.254	0.8834	0.1106	0.000391	0.0003267	2.519e-07	1.12e-07	0.0005915	0.0006172	0.0003826	0.002589	0.001113	0.0	0.0	4111000.0	8.647e-07	1.423e-07	5.032e-10	3.202e-10	1.166e-10	7.92e-06	1.093e-08	5.857e-07	5.391e-07	0.0001223	6.073e-05	7.505e-05	4.703e-05	0.9997	0.0	5008000.0	9.074e-07	1.501e-07	5.308e-10	3.355e-10	7.852e-11	5.351e-06	5.805e-09	6.811e-07	6.139e-07	7.33e-05	3.641e-05	0.0001009	4.098e-14	6.855e-05	0.9997	0.0	0.0	0.0	125.6	6.703e-05	0.006116	2.163e-05	7.417e-07	1.385e-05	0.03757	6.911e-10	4.864e-07	1.055e-06	4.757e-08	0.9562	0.0	0.0	1.317	1.0	0.0
31	4	10.31119962516293	863742.6129127804	324.7029889185948	802.402863960038	889.6383259392476	0.9427454417506596	1.5434953403922593	-1.3552928704602953	729.3	0.001599	2.255e-08	7.974e-11	5.917e-07	7.412e-09	0.0005022	2.005e-06	3.446e-06	3.142e-06	0.000119	5.84e-05	0.2583	0.7394	447900.0	4.635e-07	3.484e-09	1.232e-11	1.722e-10	1.118e-09	6.861e-05	1.25e-07	3.859e-06	3.579e-06	0.0004355	0.0002144	2.772e-09	6.285e-05	0.0	0.9992	879600.0	1.757e-06	5.202e-10	1.84e-12	6.495e-10	1.565e-10	1.061e-05	1.191e-08	2.649e-06	2.38e-06	8.729e-05	4.333e-05	0.0002253	9.193e-08	0.001406	0.0	0.0	0.0	0.9982	0.4102	0.002221	1.543e-05	5.455e-08	2.456e-05	0.0004636	0.9968	2.863e-07	1.611e-05	0.000403	1.854e-05	0.0	0.0	0.0	1.317	1.0	0.0
33	4	22.379155320062335	634258.8448453823	803.2318382268179	536.0776207597693	983.2631533675383	0.0710633070597626	-1.5201422781198124	-0.398798100787787	3.974	0.9863	5.603e-07	1.981e-09	0.0003649	1.967e-07	0.01224	0.000396	7.414e-05	6.248e-05	0.0003724	0.0001789	0.0	0.0	186.5	0.02729	2.188e-06	7.736e-09	1.01e-05	6.937e-07	0.04369	9.129e-05	0.004075	0.003615	0.3536	0.1745	0.3539	0.0392	0.0	0.0	395.9	0.003381	4.1e-06	1.45e-08	1.249e-06	1.295e-06	0.08219	0.0001293	0.0004006	0.0003755	0.5635	0.2782	0.06178	7.866e-13	0.01003	0.0	0.0	0.0	0.0	30.14	0.0003035	1.103e-07	3.899e-10	3.359e-06	6.271e-05	0.1694	2.756e-09	2.203e-06	3.992e-06	1.792e-07	0.8302	0.0	0.0	1.317	1.0	0.0
34	1	43.259538749698336	197660.14124898612	1771.127839313241	54.88658508792766	760.5085000975574	-0.8606225463015379	0.40360536896657817	1.1183876844841594	0.0007128	0.8545	0.07716	0.0002745	0.0003246	0.04208	0.0	0.02421	0.00144	0.0	3.587e-05	1.119e-05	0.0	0.0	6272000.0	5.168e-10	7.692e-11	2.72e-13	1.947e-13	2.529e-11	1.443e-06	2.945e-09	2.34e-11	3.067e-11	6.507e-06	3.187e-06	4.88e-06	0.0	1.0	0.0	10220000.0	3.223e-10	5.157e-11	1.824e-13	1.214e-13	1.577e-11	1.051e-06	1.466e-09	4.481e-09	3.85e-09	1.26e-05	6.246e-06	1.76e-05	5.88e-06	0.0	0.9617	0.0	0.03822	0.0	1837.0	1.094e-11	1.067e-09	3.774e-12	1.157e-13	2.855e-10	2.157e-05	1.517e-11	7.574e-14	3.526e-08	1.624e-09	0.5242	0.3684	0.1073	1.317	1.0	0.0
35	4	4.632376655720525	-863710.0504872104	1429.0910652064063	779.2915203449049	865.839164562808	-0.18144681054493317	1.4810185459773542	-1.139657659504337	1.921	0.1197	3.908e-05	1.382e-07	4.433e-05	1.291e-05	0.8771	0.002282	6.751e-06	2.688e-06	0.0005809	0.0002848	0.0	0.0	206.6	7.168e-05	7.753e-06	2.742e-08	2.611e-08	2.535e-06	0.1474	0.0002903	1.837e-07	1.456e-06	0.5718	0.2804	2.627e-11	0.0	0.0	0.0	61.44	0.004014	1.885e-06	6.666e-09	1.487e-06	6.073e-07	0.03691	7.285e-05	2.888e-06	5.655e-06	0.6427	0.3162	0.000154	7.056e-10	0.0	0.0	0.0	0.0	0.0	578.3	1.107e-06	2.386e-07	8.437e-10	1.226e-08	2.94e-07	0.005576	3.507e-09	8.037e-09	8.075e-06	3.719e-07	0.5602	0.1086	0.3256	1.317	1.0	0.0
36	2	17.419269115202464	478124.39755773917	486.7188483815443	810.4239692318866	1636.8994707097447	-0.6416925545112951	-1.567349776184379	0.12910287962720957	86.49	0.03881	0.005891	2.083e-05	1.436e-05	2.103e-08	0.001436	1.504e-05	1.241e-07	1.051e-07	6.755e-06	3.316e-06	0.9538	0.0	317.0	0.006234	0.0009702	3.431e-06	2.304e-06	9.581e-07	0.06012	9.522e-05	0.008996	0.008165	0.3547	0.1749	0.004045	0.3817	0.0	0.0	980000.0	3.034e-06	5.114e-07	1.809e-09	1.124e-09	5.236e-10	3.619e-05	4.318e-08	2.786e-06	2.594e-06	0.0008135	0.0004046	0.0002651	1.517e-09	0.000944	0.0785	0.0	0.0	0.919	2.124	0.001712	0.1441	0.0005095	1.895e-05	0.0003541	0.8533	2.894e-08	1.243e-05	5.308e-05	2.422e-06	0.0	0.0	0.0	1.317	1.0	0.0
38	4	39.46072342616141	-276563.0929267105	1740.0277154476678	726.5994560949393	1080.1151353485957	-0.6134259960152206	-0.41647866469457884	0.04512090268953273	63.08	0.1801	6.622e-06	2.342e-08	6.663e-05	2.193e-06	0.1217	0.000257	0.0002436	0.0002039	0.4684	0.229	0.0	0.0	32.47	0.477	3.65e-06	1.291e-08	0.0001765	1.195e-06	0.06929	0.0002178	9.85e-05	8.188e-05	0.304	0.149	1.239e-05	0.0	0.0	0.0	447.3	0.01719	3.255e-06	1.151e-08	6.365e-06	1.014e-06	0.06593	0.0001169	7.772e-05	7.675e-05	0.5922	0.2929	0.009336	0.02222	0.0	0.0	0.0	0.0	0.0	1684.0	3.267e-05	1.375e-09	4.861e-12	3.616e-07	6.749e-06	0.019	5.777e-10	2.371e-07	5.7e-08	2.096e-09	0.4243	0.4808	0.07587	1.317	1.0	0.0
40	2	40.814499878513494	999894.996715945	1541.8214857146786	235.14445802799509	912.2625078667975	-0.0820096111035089	0.9055569980205602	1.5169936401043564	7.444	0.8877	0.1088	0.0003847	0.0003282	7.732e-08	0.0	0.0007935	0.0009841	0.0005498	0.0003572	0.0001477	0.0	0.0	247700000.0	8.111e-08	1.254e-08	4.435e-11	3.001e-11	3.451e-14	2.142e-09	1.212e-11	2.989e-09	2.672e-09	9.212e-09	4.539e-09	7.801e-07	0.0	1.0	0.0	12760000.0	3.868e-08	6.39e-09	2.259e-11	1.436e-11	6.841e-11	4.665e-06	5.83e-09	1.055e-08	8.937e-09	7.225e-05	3.589e-05	6.73e-07	1.913e-08	0.0	0.8047	0.0	0.1951	0.0	1464.0	3.624e-05	0.003634	1.285e-05	4.011e-07	7.484e-06	0.021	4.976e-10	2.63e-07	5.665e-08	2.025e-09	0.7578	0.2175	6.826e-06	1.317	1.0	0.0
41	2	39.932062062433765	-960065.2679949793	494.3156947688281	1153.483281554544	1295.7362005731109	-1.4043633393627255	1.3622711163168453	-0.6424266791652574	73820000.0	7.38e-08	1.172e-08	4.145e-11	2.733e-11	7.237e-12	4.717e-07	7.985e-10	6.69e-06	6.062e-06	4.272e-06	2.113e-06	1.234e-06	1.0	343400.0	6.637e-05	1.064e-05	3.761e-08	2.456e-08	9.082e-11	5.995e-06	1.696e-08	5.392e-06	4.917e-06	5.781e-05	2.863e-05	7.334e-10	0.001491	0.0	0.9983	321100000.0	6.557e-08	1.069e-08	3.781e-11	2.425e-11	5.031e-13	3.385e-08	3.173e-11	4.146e-06	3.773e-06	3.821e-07	1.896e-07	1.641e-09	6.994e-09	2.236e-06	0.0	0.0	0.0	1.0	11.04	0.001754	0.1479	0.0005231	1.941e-05	0.0003621	0.8494	3.04e-09	1.273e-05	2.477e-06	9.043e-08	0.0	0.0	0.0	1.317	1.0	0.0
43	4	3.3186289389550434	-643230.71416514	1910.440467001011	522.1659086903479	1922.4983886956336	-0.14802458599508617	0.36937220596182163	-1.332238452217092	1.73	0.05157	2.031e-05	7.18e-08	1.907e-05	7.119e-06	0.3335	0.001105	6.646e-06	1.067e-05	0.4149	0.1989	0.0	0.0	907.0	9.304e-06	2.661e-06	9.41e-09	3.473e-09	8.241e-07	0.05406	8.049e-05	2.029e-07	3.175e-07	0.4383	0.217	0.01908	0.0	0.2715	0.0	3763.0	6.63e-05	1.172e-07	4.143e-10	2.459e-08	3.375e-08	0.002382	2.603e-06	1.402e-08	1.063e-08	0.04876	0.02428	0.4399	0.003146	1.645e-10	0.2183	0.0	0.2632	0.0	1838.0	2.296e-07	1.955e-07	6.914e-10	2.54e-09	9.878e-08	0.00405	2.754e-09	1.666e-09	6.404e-06	2.949e-07	0.9619	0.03408	0.0	1.317	1.0	0.0
44	1	26.487556515996115	947994.7576331927	1567.3176785597925	344.20180099230254	959.2506171699631	0.25427554764172955	0.7669698126690649	0.14823081979743913	0.6024	0.0003045	3.97e-05	1.404e-07	1.147e-07	1.491e-05	0.003981	0.0006674	0.007549	0.005739	0.6744	0.3073	0.0	0.0	6628000.0	1.517e-10	2.233e-11	7.898e-14	5.713e-14	7.422e-12	4.067e-07	8.793e-10	5.266e-09	4.521e-09	1.861e-06	9.087e-07	6.054e-06	0.0	1.0	0.0	16160000.0	6.926e-10	1.069e-10	3.779e-13	2.609e-13	3.388e-11	2.134e-06	3.611e-09	1.067e-09	1.101e-09	1.421e-05	7.011e-06	1.308e-06	5.629e-08	0.0	1.0	0.0	0.0	0.0	1632.0	2.958e-11	2.836e-09	1.003e-11	3.126e-13	7.718e-10	5.814e-05	4.1e-11	2.048e-13	9.502e-08	4.376e-09	0.633	0.3379	0.02908	1.317	1.0	0.0
46	2	10.742621267031009	352149.4054903053	1898.2470024596753	1589.5155537010648	1726.2476518227684	0.8089680717006371	-0.20007110563993558	-1.3822371632233226	1164.0	0.0009748	0.0001636	5.785e-07	3.612e-07	4.225e-07	0.02913	3.436e-05	1.194e-06	7.166e-07	0.6477	0.322	0.0	0.0	833.0	0.001386	0.0002333	8.248e-07	5.119e-07	5.876e-07	0.04054	4.235e-05	2.337e-07	1.439e-07	0.6397	0.3181	6.221e-13	0.0	0.0	0.0	8.611	0.2822	0.04796	0.0001696	0.0001044	9.957e-07	0.07045	0.0001576	4.353e-06	3.402e-06	0.2587	0.1287	0.1164	0.09511	0.0	0.0	0.0	0.0	0.0	61.88	7.105e-05	0.007336	2.594e-05	7.864e-07	1.482e-05	0.05239	9.213e-09	5.157e-07	1.808e-05	8.315e-07	0.3561	0.4545	0.1296	1.317	1.0	0.0
48	1	16.468425596711754	484861.4889919772	822.9959185853752	1459.484214405411	1825.8862421393378	1.059793424383598	-0.732671175949026	0.9680631141530425	1034.0	7.54e-06	1.238e-06	4.379e-09	2.838e-09	3.689e-07	0.02521	3.037e-05	4.988e-08	3.501e-07	0.4263	0.2118	0.3366	0.0	59300.0	2.174e-07	3.687e-08	1.304e-10	8.183e-11	1.064e-08	0.0007414	7.363e-07	6.665e-06	6.182e-06	0.01806	0.008992	4.266e-07	0.01511	0.0	0.9571	219100.0	1.066e-09	1.985e-10	7.02e-13	3.991e-13	5.235e-11	3.733e-06	1.98e-09	1.793e-06	1.647e-06	1.982e-05	9.894e-06	0.02168	0.01226	0.1156	0.07027	0.0	0.07737	0.7028	0.136	5.303e-07	4.625e-05	1.635e-07	5.598e-09	1.383e-05	0.9982	7.348e-07	3.67e-09	0.001631	7.513e-05	0.0	0.0	0.0	1.317	1.0	0.0
49	3	42.249337085520835	-35353.28191675281	210.35826446050382	154.7705233044678	1477.0828865638302	0.46381037047819795	0.4840399668525741	-0.887017941514104	0.5354	0.0008386	0.9013	0.003189	3.166e-07	4.105e-05	0.0	0.0001742	0.0692	0.01754	0.007066	0.0006809	0.0	0.0	664700.0	1.478e-08	3.882e-06	1.373e-08	5.565e-12	7.231e-10	4.948e-05	5.897e-08	4.497e-07	4.297e-07	0.0008121	0.0004035	0.0004554	0.001397	0.7577	0.2392	2746000.0	2.575e-09	1.689e-06	5.974e-09	9.691e-13	1.259e-10	8.781e-06	8.692e-09	1.071e-06	9.857e-07	0.0002139	0.0001065	0.0003775	4.893e-06	0.0009839	0.4153	0.0	0.0003947	0.5827	0.7822	4.512e-09	0.9945	0.003517	4.754e-11	1.175e-07	0.00129	6.242e-09	3.12e-11	2.123e-06	9.777e-08	0.0006732	0.0	0.0	1.317	1.0	0.0
50	3	12.731075791280048	-188014.43487521063	1142.3034374057265	834.2293620451577	903.1233584395991	1.4884070253043453	-1.0199128274970204	0.24441987667989884	196.1	3.775e-05	0.000501	1.772e-06	1.422e-08	1.847e-06	0.11	0.0002098	4.73e-07	2.526e-06	0.5964	0.2929	0.0	0.0	81.85	3.89e-05	0.002491	8.81e-06	1.465e-08	1.904e-06	0.1141	0.0002165	2.481e-08	1.434e-06	0.5921	0.291	2.267e-11	0.0	0.0	0.0	18.24	5.506e-05	0.01537	5.435e-05	2.074e-08	2.694e-06	0.1663	0.0002952	0.0001378	0.0001149	0.5477	0.2698	7.18e-05	8.59e-05	0.0	0.0	0.0	0.0	0.0	68.89	2.314e-09	0.005569	1.969e-05	2.444e-11	6.037e-08	0.004486	3.207e-09	1.602e-11	7.331e-06	3.376e-07	0.2216	0.4702	0.2982	1.317	1.0	0.0
51	2	10.723488192628526	725672.8118995999	1019.0013386941266	1256.468669945886	1326.3944259378582	-0.8153205209220646	1.3878759345203124	-0.938888293325609	905.3	9.56e-05	1.541e-05	5.449e-08	3.56e-08	8.259e-07	0.05511	7.687e-05	6.769e-06	4.781e-06	0.6311	0.3129	0.000684	0.0	59.81	0.0303	0.004918	1.739e-05	1.121e-05	3.468e-07	0.02359	4.371e-05	6.147e-06	6.498e-06	0.1509	0.07484	1.841e-09	0.7153	0.0	0.0	105.3	0.01795	0.002937	1.039e-05	6.64e-06	2.384e-07	0.0161	1.585e-05	0.0004223	0.0003877	0.04634	0.023	1.239e-05	2.433e-05	0.8928	0.0	0.0	0.0	0.0	2.092	0.001229	0.1161	0.0004105	1.36e-05	0.0002563	0.8817	1.418e-07	8.919e-06	0.0003067	1.411e-05	0.0	0.0	0.0	1.317	1.0	0.0
52	2	46.923495075933346	356059.92778855446	258.22839490615365	916.0458548216851	1414.5306797598219	1.1205118625998431	-1.515209566436242	1.5089806965327583	38070.0	0.0007078	0.0001095	3.872e-07	2.619e-07	4.713e-11	2.975e-06	1.232e-07	2.91e-06	2.63e-06	1.586e-05	7.815e-06	0.01001	0.9891	16560000.0	3.449e-07	5.694e-08	2.013e-10	1.277e-10	4.525e-11	3.081e-06	4.205e-09	2.255e-06	2.058e-06	4.696e-05	2.332e-05	1.342e-06	1.318e-05	0.0	0.9999	103700000.0	1.232e-06	2.5e-07	8.841e-10	4.557e-10	4.639e-12	3.324e-07	4.596e-11	9.804e-07	9.004e-07	0.0001169	5.84e-05	0.0007562	2.048e-06	0.0016	0.3223	5.158e-05	0.001826	0.6732	4.569	0.003421	0.2578	0.0009118	3.782e-05	0.0007058	0.7371	2.005e-09	2.482e-05	1.365e-06	4.227e-08	0.0	0.0	0.0	1.317	1.0	0.0
53	3	26.53763587709501	731633.7704510996	749.3391063251007	478.23485731168506	702.1469719683142	1.3061150884980468	0.14045214881965684	-1.3676732780533953	51.02	0.0001288	0.001187	4.197e-06	4.854e-08	6.3e-06	0.198	0.0006731	0.0005145	0.0004363	0.5415	0.2575	0.0	0.0	7.388	4.773e-05	0.1339	0.0004736	1.795e-08	2.338e-06	0.1279	0.0002813	0.003112	0.002756	0.4468	0.2181	0.06659	0.0	0.0	0.0	533300.0	1.398e-09	2.79e-06	9.865e-09	5.264e-13	6.839e-11	4.442e-06	6.867e-09	9.614e-06	8.677e-06	2.699e-05	1.335e-05	1.211e-05	0.0001213	0.0001807	0.9996	0.0	0.0	0.0	2.869	8.94e-09	0.3812	0.001348	9.437e-11	2.332e-07	0.01661	1.239e-08	6.187e-11	2.714e-05	1.25e-06	0.6007	0.0001187	0.0	1.317	1.0	0.0
54	4	11.982858333587425	-359502.0534123768	1603.2424411381103	1541.999489351955	1890.3359282222084	-1.4545569302366939	-0.6354764687900937	-0.9240834142242957	0.3464	0.9971	5.826e-05	2.062e-07	0.0003685	2.606e-05	0.0	0.002053	1.492e-05	5.613e-06	0.0003137	4.376e-05	0.0	0.0	47430.0	2.088e-05	4.351e-08	1.539e-10	7.725e-09	1.286e-08	0.000884	1.008e-06	4.793e-09	3.959e-09	0.01527	0.007589	0.008351	0.0	0.9679	0.0	256300.0	9.053e-06	4.538e-09	1.605e-11	3.352e-09	1.303e-09	9.103e-05	9.443e-08	1.975e-08	2.288e-08	0.002866	0.001427	0.00526	1.077e-05	0.000223	0.9397	0.0	0.05037	0.0	1267.0	3.732e-06	1.826e-08	6.455e-11	4.13e-08	7.757e-07	0.002535	3.166e-10	2.709e-08	6.114e-07	2.81e-08	0.9975	4.979e-07	0.0	1.317	1.0	0.0
55	4	39.04292136398024	448576.3683188504	1713.0138032359102	454.4944585699357	1683.9231459765592	-0.9701608317792322	1.1012697056044427	1.443817178056492	15.19	0.5891	8.673e-06	3.067e-08	0.0002179	3.103e-06	0.084	0.0005968	1.86e-05	1.889e-05	0.2213	0.1047	0.0	0.0	2413000.0	4.657e-06	9.294e-10	3.286e-12	1.722e-09	2.712e-10	1.879e-05	1.81e-08	5.236e-08	5.089e-08	0.0003939	0.000196	0.0001228	0.0	0.9993	0.0	33240000.0	2.271e-06	8.376e-11	2.962e-13	8.406e-10	2.061e-11	1.476e-06	6.129e-10	1.873e-06	1.715e-06	0.0005403	0.0002698	0.001409	0.0002435	0.002731	0.2481	0.001556	0.1174	0.6277	1169.0	4.548e-05	1.992e-09	7.045e-12	5.034e-07	9.394e-06	0.02644	7.8e-10	3.301e-07	8.206e-08	3.044e-09	0.9735	9.266e-09	0.0	1.317	1.0	0.0
56	3	28.817193642439648	-293330.65159713035	897.9091464013692	611.4352607957607	1450.8664517348118	-0.023436028113629437	-0.8809350011851085	0.7469087859629919	1.16	7.003e-06	0.9071	0.003208	2.546e-09	3.515e-07	0.02146	5.993e-05	0.03427	0.02954	0.002931	0.00142	0.0	0.0	1275000.0	6.687e-09	9.829e-07	3.475e-09	2.518e-12	3.271e-10	2.224e-05	2.775e-08	5.59e-07	4.977e-07	0.0003072	0.0001526	0.0001992	0.0001502	0.9992	0.0	1549000.0	6.165e-09	7.738e-07	2.736e-09	2.321e-12	3.016e-10	2.06e-05	2.492e-08	6.211e-07	5.762e-07	0.0003416	0.0001697	0.0001597	1.62e-14	0.0001331	0.9992	0.0	0.0	0.0	33.87	7.485e-10	0.04562	0.0001613	7.903e-12	1.953e-08	0.001423	1.037e-09	5.181e-12	2.326e-06	1.071e-07	0.9528	0.0	0.0	1.317	1.0	0.0
57	4	30.556127290637153	592878.6656924144	1906.3458793657328	503.15982718842537	1953.338270502779	0.49225032819000747	-0.19181074277390642	-0.3210579535193676	20.85	0.2612	1.078e-05	3.811e-08	9.665e-05	3.79e-06	0.1346	0.000434	0.0003272	0.0002791	0.4081	0.195	0.0	0.0	1740000.0	9.742e-06	2.721e-10	9.623e-13	3.604e-09	7.921e-11	5.497e-06	6.61e-09	1.276e-09	9.412e-10	0.0001221	6.075e-05	0.0004493	0.0	0.9994	0.0	20310000.0	3.738e-07	1.302e-10	4.604e-13	1.382e-10	3.721e-11	2.604e-06	2.183e-09	4.109e-09	4.081e-09	7.332e-05	3.651e-05	1.286e-05	2.764e-07	1.346e-11	0.9999	0.0	0.0	0.0	1410.0	2.533e-05	3.001e-09	1.061e-11	2.803e-07	5.232e-06	0.0148	5.675e-10	1.838e-07	1.072e-07	4.528e-09	0.9779	0.007246	0.0	1.317	1.0	0.0
58	4	9.764018616957554	-158969.0504668284	460.89976728124145	172.83507965459953	1456.4212224760465	1.1923829753265691	-1.2873715695911627	-0.09388794094265451	0.3069	0.8996	9.085e-05	3.214e-07	0.0003325	3.891e-05	0.0	0.001026	2.099e-06	2.157e-05	0.09603	0.002813	0.0	0.0	11.63	0.006533	5.181e-05	1.832e-07	2.425e-06	1.953e-05	0.0008181	0.000685	1.59e-05	4.138e-05	0.6764	0.3072	0.008216	0.0	0.0	0.0	330800.0	4.869e-06	7.445e-10	2.633e-12	1.8e-09	2.218e-10	1.516e-05	1.528e-08	1.966e-06	1.812e-06	0.0001013	5.032e-05	0.002592	0.0001854	0.00426	0.3355	0.01073	0.03867	0.6079	17.21	6.346e-05	5.821e-07	2.059e-09	7.021e-07	1.329e-05	0.04124	1.021e-08	4.605e-07	1.925e-05	8.859e-07	0.9501	0.008535	0.0	1.317	1.0	0.0
63	4	29.488613133464806	-449423.18304416887	1250.2537253298271	608.959002345744	1973.9230274941665	1.1211351454082257	-0.008870033223986606	0.9921855442809391	99.48	0.0144	1.03e-05	3.642e-08	5.336e-06	3.509e-06	0.1676	0.0004239	0.0001049	9.88e-05	0.5506	0.2668	0.0	0.0	923500.0	2.091e-05	2.684e-10	9.49e-13	7.736e-09	7.659e-11	5.365e-06	4.724e-09	1.612e-06	1.463e-06	0.0001379	6.867e-05	0.0002235	0.001091	0.9984	0.0	2041000.0	8.888e-06	2.643e-10	9.347e-13	3.288e-09	7.525e-11	5.275e-06	3.602e-09	1.909e-06	1.735e-06	0.0001409	7.019e-05	5e-05	1.835e-11	0.0005198	0.9992	0.0	0.0	0.0	58.59	0.000395	5.085e-08	1.798e-10	4.372e-06	8.16e-05	0.2275	4.098e-09	2.867e-06	1.881e-06	8.032e-08	0.772	0.0	0.0	1.317	1.0	0.0
64	2	32.2808711451226	-601881.690587756	842.4834901419825	417.39601888098446	775.9396650964865	0.05244154001819501	0.601464464529037	1.3910260913872396	7.906	0.837	0.1138	0.0004026	0.0003096	8.656e-08	0.002025	0.0003165	0.01657	0.01316	0.01117	0.005233	0.0	0.0	219.8	0.001198	0.0001798	6.358e-07	4.438e-07	2.293e-06	0.1304	0.000268	3.452e-05	3.675e-05	0.5803	0.2842	0.003352	0.0	0.0	0.0	66.0	0.1647	0.02483	8.779e-05	6.092e-05	1.834e-07	0.01063	4.806e-05	0.007089	0.006238	0.03713	0.0182	0.731	2.009e-10	0.0	0.0	0.0	0.0	0.0	91.83	0.0002158	0.01981	7.005e-05	2.388e-06	4.457e-05	0.12	1.074e-09	1.566e-06	7.153e-07	2.961e-08	0.8598	1.457e-05	2.878e-05	1.317	1.0	0.0
66	4	22.364399563478592	10866.689353858936	62.54845790599411	440.49314951346906	1825.792418700829	-1.480123289794567	-0.8683789789927429	0.1629511655972209	15460.0	7.824e-05	2.951e-08	1.044e-10	2.894e-08	1.092e-08	8.194e-05	7.358e-07	2.081e-06	1.518e-06	0.0004924	0.0002275	0.0007246	0.9984	23580.0	8.263e-05	1.61e-08	5.693e-11	3.057e-08	5.791e-09	0.0001396	6.093e-07	2.092e-06	1.665e-06	0.000391	0.0001844	6.798e-12	0.001185	0.0	0.998	1199000.0	9.216e-06	3.717e-12	1.314e-14	3.41e-09	1.072e-12	7.477e-08	2.956e-10	1.013e-06	9.107e-07	1.771e-07	8.816e-08	0.0005945	0.0008137	0.0033	0.05249	0.1056	0.1491	0.6881	0.001395	0.818	0.0001855	6.569e-07	0.008947	0.167	0.0	4.708e-06	0.005899	0.0	0.0	0.0	0.0	0.0	1.479	0.8906	0.1094
67	3	1.704745699390775	-46322.76031076547	1717.54102271714	1161.2683050997184	1236.2906017588323	0.1723908623359256	-0.8245240614214595	-0.08972368027008049	204.2	1.547e-05	3.724e-05	1.317e-07	5.64e-09	7.76e-07	0.05333	8.848e-05	4.995e-07	8.451e-07	0.6331	0.3134	0.0	0.0	151.9	1.984e-05	5.249e-05	1.856e-07	7.168e-09	1.002e-06	0.06983	0.0001153	6.324e-07	8.745e-07	0.6219	0.308	3.643e-07	0.0	0.0	0.0	523.6	3.863e-05	1.114e-06	3.939e-09	1.455e-08	1.89e-06	0.1262	0.0001743	5.64e-07	2.245e-07	0.5838	0.2894	0.0002745	2.283e-06	0.0	0.0	0.0	0.0	0.0	534.4	2.36e-08	1.935e-05	6.843e-08	2.494e-10	6.156e-07	0.04649	3.27e-08	1.633e-10	7.598e-05	3.499e-06	0.4028	0.3889	0.1618	1.317	1.0	0.0
68	1	10.456387613268443	-71832.18754412676	682.764104613662	257.2091015536016	1201.398853875889	-1.4815967873385505	-1.1319689322257425	1.5664776294305738	2.825	0.0002871	3.55e-05	1.256e-07	1.081e-07	1.407e-05	0.0	0.000217	0.4517	0.2766	0.19	0.08115	0.0	0.0	807700000.0	1.586e-11	2.531e-12	8.951e-15	5.971e-15	7.759e-13	5.157e-08	7.289e-11	1.263e-07	1.142e-07	5.327e-07	2.64e-07	2.106e-08	8.81e-08	1.0	0.0	2498000000000.0	8.673e-15	2.6e-15	9.194e-18	3.25e-18	4.237e-16	3.035e-11	3.224e-17	9.162e-07	8.415e-07	0.0002104	0.0001051	0.004817	0.001063	0.01176	0.2212	0.01251	0.09367	0.6546	51.31	2.977e-09	2.522e-07	8.918e-10	3.142e-11	7.764e-08	0.00544	4.124e-09	2.06e-11	8.889e-06	4.094e-07	0.9946	0.0	0.0	1.317	1.0	0.0
70	4	46.34275406065269	581942.1409409507	1119.0969054762566	159.57186188724398	809.5162695884562	-0.9837950764529216	-0.17018233396940086	-0.449285951973867	2.091	0.9753	0.0001064	3.766e-07	0.0003605	4.623e-05	0.0	0.002183	0.001395	0.0002703	0.01936	0.001014	0.0	0.0	155200000.0	1.05e-07	3.393e-12	1.2e-14	3.886e-11	1.105e-12	6.513e-08	1.692e-10	5.948e-09	5.224e-09	3.435e-07	1.686e-07	1.446e-08	0.0	1.0	0.0	25180000.0	1.365e-06	1.388e-12	4.908e-15	5.049e-10	4.22e-13	2.835e-08	2.15e-10	7.112e-08	6.428e-08	3.901e-07	1.935e-07	8.327e-06	3.469e-06	3.741e-07	0.5069	0.0	0.4931	0.0	206.9	0.0002513	5.219e-09	1.845e-11	2.782e-06	5.191e-05	0.1432	1.757e-09	1.824e-06	2.674e-07	8.326e-09	0.7117	0.1448	0.0	1.317	1.0	0.0
71	3	9.967539443844938	291828.6238757607	1283.9331316025355	929.234682149536	1034.5869220159016	-1.0722043813972366	-0.014553794299923206	0.3836275768010864	281.7	3.467e-05	0.0001569	5.549e-07	1.306e-08	1.696e-06	0.1057	0.0001835	1.447e-08	9.823e-07	0.5987	0.2951	0.0	0.0	26.88	2.293e-05	0.007575	2.679e-05	8.563e-09	1.129e-06	0.07367	0.0001219	4.541e-06	3.301e-06	0.6143	0.3035	0.0007162	0.0	0.0	0.0	146.7	1.832e-05	0.001182	4.18e-06	6.899e-09	8.967e-07	0.05774	9.209e-05	5.148e-06	3.769e-06	0.6297	0.3112	0.0001108	3.298e-10	0.0	0.0	0.0	0.0	0.0	68.25	4.211e-09	0.003873	1.369e-05	4.447e-11	1.098e-07	0.008213	5.835e-09	2.914e-11	1.342e-05	6.182e-07	0.3219	0.394	0.2719	1.317	1.0	0.0
72	4	45.244517485738854	401692.5153032248	929.4944876542468	1573.1399197110168	1875.7538261298112	0.8273219119277271	-0.060150085400418885	-0.08148391330083049	1419.0	0.01291	1.241e-06	4.389e-09	4.779e-06	3.658e-07	0.02519	3.565e-05	0.008677	0.007861	0.4896	0.2434	0.2123	0.0	1341.0	0.03218	2.793e-08	9.876e-11	1.191e-05	8.108e-09	0.000564	2.815e-06	7.282e-06	6.846e-06	0.01241	0.006178	0.002501	0.9461	0.0	0.0	5341000.0	4.762e-06	3.278e-10	1.159e-12	1.761e-09	9.42e-11	6.577e-06	4.806e-09	2.158e-05	1.976e-05	0.0001689	8.41e-05	8.937e-08	1.613e-07	0.0001966	0.0	0.0	0.0	0.9995	23.79	0.001779	3.955e-08	1.398e-10	1.968e-05	0.0003674	0.9978	8.606e-09	1.291e-05	1.991e-06	6.392e-08	0.0	0.0	0.0	1.317	1.0	0.0
73	4	42.20612839682315	-237901.0582060601	517.3684126094429	724.2219008509761	1747.510373934809	0.20182406478070525	0.9814082176661092	-1.068338179798376	48.05	0.3685	4e-07	1.415e-09	0.0001363	1.326e-07	0.007389	0.000104	0.05488	0.04832	0.03652	0.01785	0.4663	0.0	19480000.0	1.203e-06	7.102e-11	2.511e-13	4.452e-10	2.062e-11	1.432e-06	1.892e-09	2.471e-06	2.247e-06	3.489e-05	1.736e-05	2.945e-05	8.128e-05	0.1981	0.8017	21380000.0	7.868e-07	1.179e-10	4.17e-13	2.91e-10	3.357e-11	2.354e-06	1.801e-09	1.774e-06	1.631e-06	7.072e-05	3.523e-05	3.238e-05	2.245e-08	8.344e-05	0.3515	0.0	0.0	0.6483	11.12	0.002021	5.412e-08	1.914e-10	2.236e-05	0.0004172	0.9975	3.514e-09	1.466e-05	2.449e-06	8.503e-08	0.0	0.0	0.0	1.317	1.0	0.0
77	3	44.86773456901196	978960.6521624189	1512.384877716332	623.4854783487934	799.2999853248875	-0.5782657053987394	1.5062675192535862	1.204090720746442	2.772	5.577e-06	0.937	0.003313	2.075e-09	2.755e-07	0.01479	3.795e-05	0.0005688	0.0004922	0.0295	0.01431	0.0	0.0	171.3	4.226e-05	0.006717	2.375e-05	1.592e-08	2.068e-06	0.1212	0.0002373	0.002253	0.002027	0.5731	0.2812	0.01332	0.0	0.0	0.0	395.7	1.309e-05	0.007989	2.825e-05	4.931e-09	6.406e-07	0.04225	6.168e-05	0.006758	0.006043	0.4438	0.2198	0.2731	0.0001869	0.0	0.0	0.0	0.0	0.0	846.5	1.928e-11	0.007453	2.635e-05	2.037e-13	5.03e-10	3.785e-05	2.672e-11	1.334e-13	6.186e-08	2.849e-09	0.7551	0.1799	0.05743	1.317	1.0	0.0
78	4	3.08710187482025	315072.3148825832	1635.084743651668	928.412681840531	1557.597796297449	0.14759101725938772	0.7971505210206491	1.3898502026482653	38.41	0.003204	3.273e-06	1.158e-08	1.187e-06	1.051e-06	0.0714	0.0001494	6.779e-07	1.634e-06	0.6198	0.3055	0.0	0.0	328.2	0.0005874	5.479e-07	1.937e-09	2.175e-07	1.629e-07	0.01148	1.53e-05	8.305e-08	8.451e-08	0.08418	0.04185	0.8619	0.0	0.0	0.0	2885.0	1.2e-06	1.464e-06	5.178e-09	4.424e-10	4.209e-07	0.02939	2.837e-05	6.056e-07	3.055e-07	0.6393	0.3183	0.007264	0.001849	0.001995	0.001825	0.0	0.0	0.0	402.3	7.941e-07	8.837e-07	3.125e-09	8.784e-09	4.012e-07	0.01848	1.271e-08	5.76e-09	2.947e-05	1.357e-06	0.9815	2.395e-05	0.0	1.317	1.0	0.0
79	1	2.619268353642737	-520070.24973075656	430.7781972112747	76.12272342994322	1066.0313033076243	0.5604713700959114	-0.3663820470050072	1.2148591332877392	0.0005858	0.8311	0.08078	0.0002865	0.0003133	0.04083	0.0	0.04571	1.377e-05	0.0	0.0007403	0.000207	0.0	0.0	2463.0	2.092e-06	3.306e-07	1.169e-09	7.776e-10	1.034e-07	0.006862	1.12e-05	2.047e-07	4.961e-08	0.035	0.01731	0.03351	0.1418	0.7282	0.03729	5709.0	1.67e-06	2.66e-07	9.406e-10	6.283e-10	8.178e-08	0.005424	7.815e-06	8.741e-07	1.053e-06	0.01938	0.0096	0.02084	6.327e-05	0.094	0.5904	0.0	0.002342	0.2579	11.98	1.381e-07	1.086e-05	3.839e-08	1.457e-09	3.601e-06	0.2139	1.913e-07	9.555e-10	0.0003494	1.609e-05	0.7857	0.0	0.0	1.317	1.0	0.0
81	1	10.087131953106384	-974772.6700303027	1664.1653733244689	603.0588617550064	1020.0284740744665	0.006671604115624952	0.9758930728648192	1.0860310436838247	0.5174	0.000111	1.631e-05	5.769e-08	3.988e-08	5.616e-06	0.3639	0.001055	0.0006405	0.0005673	0.4269	0.2067	0.0	0.0	157.8	1.866e-05	2.907e-06	1.028e-08	7.025e-09	9.133e-07	0.05861	9.461e-05	2.061e-05	1.627e-05	0.3115	0.1539	0.4758	0.0	0.0	0.0	556.1	2.042e-05	3.209e-06	1.135e-08	7.691e-09	9.991e-07	0.06501	9.991e-05	1.076e-06	2.417e-06	0.6024	0.298	0.03447	8.057e-09	0.0	0.0	0.0	0.0	0.0	1327.0	2.642e-10	2.554e-08	9.032e-11	2.792e-12	6.893e-09	0.0005201	3.661e-10	1.829e-12	8.5e-07	3.915e-08	0.7368	0.2302	0.03245	1.317	1.0	0.0
82	4	34.183109885502866	827638.4353666557	1815.3356139425857	228.66635874749326	1090.0678212815749	-0.6999146058041966	-0.6662475920395375	-1.301622890731363	4.014	0.8415	3.032e-05	1.073e-07	0.0003111	1.228e-05	0.0	0.001185	0.0002195	0.0001017	0.1113	0.0454	0.0	0.0	1500000.0	7.257e-06	5.204e-10	1.84e-12	2.684e-09	1.619e-10	1.055e-05	1.579e-08	1.769e-08	1.725e-08	9.022e-05	4.463e-05	0.0001031	0.0	0.9997	0.0	57300000.0	2.954e-07	2.914e-11	1.03e-13	1.093e-10	8.288e-12	5.811e-07	6.583e-10	2.576e-08	2.317e-08	1.956e-05	9.745e-06	1.508e-05	3.934e-06	2.926e-07	0.9754	0.0	0.02457	0.0	1775.0	2.412e-05	1.813e-09	6.411e-12	2.67e-07	4.983e-06	0.01406	4.766e-10	1.751e-07	6.822e-08	2.751e-09	0.7974	0.1885	0.0	1.317	1.0	0.0
83	1	23.984764525650704	-933984.1780639937	664.1030729179228	139.85377148016505	878.8386477827531	-0.8222582518803905	0.376621143024479	0.8475441818038902	0.009688	0.1265	0.0139	4.921e-05	4.776e-05	0.006193	0.0	0.02108	0.5321	0.105	0.1713	0.02387	0.0	0.0	27930000.0	1.83e-10	2.785e-11	9.85e-14	6.892e-14	8.952e-12	5.471e-07	9.928e-10	2.448e-08	2.213e-08	3.286e-06	1.617e-06	9.309e-07	5.588e-07	1.0	0.0	28960000.0	6.607e-11	1.073e-11	3.795e-14	2.487e-14	3.233e-12	2.189e-07	2.812e-10	4.161e-06	3.793e-06	3.514e-06	1.744e-06	1.178e-05	2.17e-06	2.074e-05	0.6351	0.0	0.09851	0.2664	45.64	6.212e-10	5.24e-08	1.853e-10	6.557e-12	1.62e-08	0.001129	8.607e-10	4.299e-12	1.845e-06	8.496e-08	0.9989	0.0	0.0	1.317	1.0	0.0
84	4	1.0944864871834339	407889.79792107875	30.42259815025512	1243.8132860648063	1987.5895482614399	-1.5046117108999604	0.3992441723239133	-0.8581235259118796	1969.0	1.539e-06	2.195e-06	7.763e-09	5.754e-10	6.699e-07	0.04496	6.223e-05	1.411e-06	8.107e-07	0.125	0.06196	0.3753	0.3927	8457.0	4.434e-06	2.535e-07	8.964e-10	1.648e-09	7.276e-08	0.005146	5.232e-06	7.158e-07	6.098e-07	0.02138	0.01065	0.03493	0.5623	0.0	0.3656	14160.0	3.743e-06	1.958e-07	6.922e-10	1.399e-09	5.348e-08	0.003799	2.718e-06	6.662e-07	4.913e-07	0.269	0.1342	0.01988	0.02759	0.5033	0.003379	0.0	0.0	0.03888	8.539e-05	0.0193	0.6121	0.002179	0.0002009	0.3477	0.0	0.0184	0.0001331	0.0	0.0	0.0	0.0	0.0	2.514	0.5239	0.4761
85	2	2.1769410955451427	-444641.7804336784	1233.3528574851284	517.6360904233262	667.4386146658593	-0.8053119540106768	-0.3363058138233044	1.0242220832841489	33.34	0.0005246	7.201e-05	2.547e-07	1.959e-07	6.763e-06	0.1955	0.0007436	1.477e-06	1.22e-05	0.5453	0.2579	0.0	0.0	15.33	0.001469	0.0002079	7.352e-07	5.398e-07	1.431e-05	0.552	0.001685	1.282e-06	2.797e-06	0.3006	0.144	1.383e-05	0.0	0.0	0.0	27.54	0.001693	0.0002484	8.785e-07	6.29e-07	2.836e-06	0.1811	0.000481	1.499e-06	3.606e-06	0.4613	0.2246	0.04884	0.08172	0.0	0.0	0.0	0.0	0.0	591.4	2.113e-07	2.048e-05	7.242e-08	2.333e-09	2.984e-07	0.01928	1.364e-08	1.53e-09	3.132e-05	1.442e-06	0.1747	0.5014	0.3046	1.317	1.0	0.0
86	2	48.13315397252107	-621036.2083796852	1812.7553002138525	770.890967435676	877.6272660424869	0.1128132759071645	1.3024532004077232	1.4459659015392168	28.62	0.8581	0.1292	0.0004569	0.0003174	2.373e-08	0.001442	0.0001809	0.0007229	0.0006382	0.006024	0.002952	0.0	0.0	265.8	0.0001099	1.664e-05	5.884e-08	4.078e-08	2.039e-06	0.1197	0.0002331	3.588e-07	2.452e-06	0.5902	0.2897	2.287e-12	0.0	0.0	0.0	32.83	0.8352	0.1284	0.0004539	0.000309	5.106e-09	0.0003159	0.0001209	0.01263	0.01122	0.0001023	5.033e-05	0.01128	1.436e-07	0.0	0.0	0.0	0.0	0.0	1988.0	4.267e-05	0.004378	1.548e-05	4.723e-07	8.813e-06	0.02482	8.067e-10	3.097e-07	4.188e-08	1.238e-09	0.5343	0.000638	0.4358	1.317	1.0	0.0
87	2	37.63350869387328	445377.77813639306	1514.3280572163271	346.1335644255688	1211.0607103209654	0.7007786085291023	-0.6174125420490503	0.5060451406443365	10.49	0.5328	0.07012	0.000248	0.0001971	7.105e-06	0.002015	0.0002617	0.0002086	0.0001816	0.2705	0.1234	0.0	0.0	13320000.0	4.6e-07	7.428e-08	2.627e-10	1.701e-10	4.164e-11	2.772e-06	3.616e-09	9.274e-10	1.011e-09	2.953e-05	1.464e-05	2.135e-08	0.0	1.0	0.0	7298000.0	6.981e-06	1.293e-06	4.571e-09	2.583e-09	5.609e-13	3.993e-08	1.515e-10	3.601e-06	3.303e-06	9.469e-07	4.725e-07	0.00102	0.000278	0.001411	0.3307	0.03209	0.2062	0.4282	722.6	6.148e-05	0.00615	2.175e-05	6.804e-07	1.27e-05	0.03561	8.26e-10	4.462e-07	1.246e-07	4.749e-09	0.9387	0.01948	0.0	1.317	1.0	0.0
88	3	9.167998542004371	-161338.0046193014	1001.1028249712742	435.9341842131315	823.8785533965777	-1.1440229430632318	0.02499043718677818	0.9893753340038907	29.94	0.0001862	0.0004409	1.559e-06	7.019e-08	9.11e-06	0.2097	0.0008709	9.854e-07	1.331e-05	0.5362	0.2526	0.0	0.0	35.77	2.201e-05	0.00378	1.337e-05	8.249e-09	1.081e-06	0.06545	0.0001278	4.766e-06	6.86e-06	0.4229	0.2077	0.2999	0.0	0.0	0.0	824.3	1.675e-06	0.0001654	5.849e-07	6.303e-10	8.205e-08	0.005022	9.203e-06	6.012e-07	8.02e-07	0.04262	0.02097	0.009304	3.397e-07	0.0	0.9219	0.0	0.0	0.0	53.63	5.122e-09	0.003251	1.15e-05	5.408e-11	1.336e-07	0.009838	7.098e-09	3.545e-11	1.608e-05	7.404e-07	0.8224	0.1327	0.03175	1.317	1.0	0.0
89	3	40.27921349341216	203575.80872648885	214.69839350871027	364.50789351203315	1170.2343929394551	1.0507240981035753	-0.4499958945807805	0.8887202379828141	18.85	0.000186	0.02532	8.954e-05	7.014e-08	9.101e-06	0.04096	0.0005317	0.1486	0.1168	0.3873	0.1781	0.1021	0.0	1917000.0	2.928e-09	1.298e-06	4.589e-09	1.103e-12	1.432e-10	9.474e-06	1.368e-08	4.232e-07	3.712e-07	9.327e-05	4.62e-05	3.211e-06	0.0003138	0.8188	0.1808	3090000.0	2.009e-10	2.545e-06	9e-09	7.556e-14	9.829e-12	6.944e-07	5.401e-10	1.34e-06	1.219e-06	2.31e-05	1.152e-05	0.0004792	0.0003968	0.002777	0.1074	0.02831	0.1065	0.7541	0.7255	5.441e-09	0.9947	0.003518	5.734e-11	1.417e-07	0.001808	7.529e-09	3.763e-11	2.969e-06	1.368e-07	0.0	0.0	0.0	1.317	1.0	0.0
91	2	14.130414816661164	624155.4556287895	1204.547228086478	317.3700790482221	1578.7753142291522	-0.3165940152742619	0.14260888444523556	0.34190317087746314	1.634	0.5637	0.07305	0.0002584	0.0002084	1.465e-05	0.0001351	0.001279	0.0003804	0.0002587	0.249	0.1118	0.0	0.0	569500.0	1.177e-06	1.973e-07	6.975e-10	4.361e-10	1.409e-09	9.71e-05	1.113e-07	2.44e-08	1.811e-08	0.001879	0.0009344	0.0001696	4.425e-05	0.9969	0.0	155600.0	2.507e-05	4.265e-06	1.508e-08	9.278e-09	5.474e-10	3.806e-05	4.639e-08	9.009e-08	7.668e-08	0.0009181	0.0004569	0.008468	1.836e-06	0.002727	0.9874	0.0	0.0	0.0	431.9	1.192e-05	0.001154	4.08e-06	1.319e-07	2.47e-06	0.007427	5.275e-10	8.65e-08	1e-06	4.588e-08	0.9914	0.0	0.0	1.317	1.0	0.0
93	3	21.481278917248115	-33892.557447940344	504.01260390071053	1043.4228349550528	1686.1208870786645	-1.4353718779026836	0.22691115832850817	0.16784400038135727	211.0	2.485e-06	0.004152	1.468e-05	9.342e-10	1.218e-07	0.007695	1.32e-05	0.0001993	0.0001765	0.04476	0.02208	0.9209	0.0	1033.0	1.251e-05	6.561e-05	2.32e-07	4.711e-09	6.119e-07	0.03947	6.244e-05	7.395e-06	7.12e-06	0.3141	0.1552	9.319e-07	0.02558	0.0	0.4655	849800.0	7.145e-10	1.846e-06	6.528e-09	2.689e-13	3.496e-11	2.422e-06	2.579e-09	3.1e-06	2.812e-06	8.326e-05	4.142e-05	0.0005223	1.487e-05	0.002643	0.0	0.0	0.0	0.9967	0.5307	5.285e-08	0.9081	0.003211	5.577e-10	1.378e-06	0.08853	7.322e-08	3.657e-10	0.0001446	6.661e-06	0.0	0.0	0.0	1.317	1.0	0.0
94	1	47.53320536858526	880575.8384191683	1381.7464077131588	1355.1450777907492	1933.8080925711329	-0.8578421008974391	-1.2537069719421328	0.02903067548068261	66.99	1.446e-05	2.35e-06	8.308e-09	5.442e-09	7.075e-07	0.04792	6.143e-05	0.00582	0.005327	0.6287	0.3121	0.0	0.0	679.2	1.399e-05	2.277e-06	8.051e-09	5.267e-09	6.843e-07	0.04642	5.884e-05	0.005176	0.004741	0.6305	0.313	8.595e-10	0.0	0.0	0.0	2021.0	4.65e-06	7.948e-07	2.81e-09	1.75e-09	2.274e-07	0.01591	1.501e-05	0.01205	0.01096	0.4815	0.2398	0.0782	0.007407	0.1542	0.0	0.0	0.0	0.0	0.02639	5.098e-07	4.801e-05	1.698e-07	5.386e-09	1.33e-05	0.9976	7.065e-07	3.529e-09	0.00163	7.509e-05	0.000652	2.292e-06	0.0	1.317	1.0	0.0
96	3	16.49145501783419	-608131.707430975	1513.0306609932022	302.60124698453404	1297.262319366674	0.5762094626054344	0.24130863573838934	0.1776277365260268	2.945	0.0004702	0.04184	0.000148	1.773e-07	2.301e-05	4.726e-05	0.0005424	0.0001023	9.472e-05	0.6623	0.2944	0.0	0.0	161000.0	6.555e-09	3.194e-06	1.13e-08	2.465e-12	3.212e-10	2.049e-05	3.41e-08	6.839e-10	1.143e-09	0.0001475	7.283e-05	0.0008304	0.0	0.9989	0.0	4261000.0	2.525e-09	6.133e-08	2.169e-10	9.509e-13	1.235e-10	8.315e-06	1.104e-08	4.953e-09	3.963e-09	9.481e-05	4.704e-05	1.11e-05	3.608e-06	0.0	0.9973	0.0	0.002498	0.0	862.2	1.402e-10	0.0009889	3.497e-06	1.481e-12	3.657e-09	0.0002751	1.942e-10	9.701e-13	4.497e-07	2.071e-08	0.7702	0.2205	0.008075	1.317	1.0	0.0
97	3	28.084680948847474	173131.26048770966	1392.2364710198585	386.76760880650784	1970.5292816433764	0.6479753572641398	1.5512406358435062	-0.6886659768296892	0.6551	1.266e-05	0.9647	0.003411	4.567e-09	6.381e-07	0.02678	0.0001458	1.727e-05	1.287e-05	0.003342	0.00155	0.0	0.0	6758.0	3.524e-06	8.595e-07	3.039e-09	1.326e-09	1.724e-07	0.01207	1.12e-05	6.184e-07	3.685e-07	0.3616	0.1801	8.84e-06	1.626e-05	0.4462	0.0	71390000.0	1.537e-12	1.453e-07	5.137e-10	5.777e-16	7.516e-14	5.385e-09	1.52e-12	1.604e-06	1.473e-06	3.116e-08	1.556e-08	0.001162	1.323e-07	0.002028	0.3545	2.963e-08	9.671e-05	0.6422	689.4	5.627e-11	0.0033	1.167e-05	5.945e-13	1.468e-09	0.0001101	7.798e-11	3.895e-13	1.8e-07	8.29e-09	0.9966	0.0	0.0	1.317	1.0	0.0
98	4	47.1502653877193	-519867.0047371863	179.49361040459473	1558.0373304306613	1864.7734719907737	0.08230982418426391	0.54084668648188	-1.1601278988720531	247600000.0	1.723e-07	6.637e-14	2.347e-16	6.374e-11	1.959e-14	1.349e-09	1.831e-11	1.898e-06	1.718e-06	3.806e-08	1.892e-08	9.478e-06	1.0	56340000.0	7.181e-07	1.31e-11	4.633e-14	2.657e-10	3.769e-12	2.631e-07	3.661e-10	1.803e-06	1.635e-06	7.3e-06	3.634e-06	7.172e-07	5.852e-05	0.0	0.9999	19900000.0	4.969e-07	1.583e-10	5.597e-13	1.837e-10	4.544e-11	3.174e-06	2.817e-09	1.76e-06	1.608e-06	8.578e-05	4.271e-05	6.418e-07	3.761e-15	4.446e-05	0.0	0.0	0.0	0.9998	0.05664	0.2075	2.953e-06	1.045e-08	0.002291	0.04275	0.746	8.791e-08	0.001504	1.848e-06	5.806e-08	0.0	0.0	0.0	1.317	1.0	0.0
99	4	26.61053655192667	-13760.098813495599	409.49771925538346	379.92919072618537	1952.401009455599	-1.0841817935360256	1.304758693411208	1.247405902712639	5.512	0.715	7.91e-06	2.798e-08	0.0002645	2.92e-06	0.02799	0.0005626	0.03986	0.03098	0.1267	0.05862	0.0	0.0	881500.0	1.573e-06	4.211e-09	1.489e-11	5.812e-10	1.204e-09	8.424e-05	7.667e-08	3.752e-07	3.169e-07	0.002439	0.001215	0.0001071	0.0004599	0.8636	0.1321	229000000.0	2.617e-07	2.378e-12	8.407e-15	9.683e-11	5.601e-13	4.016e-08	1.47e-11	1.034e-06	9.484e-07	4.236e-05	2.116e-05	0.000886	4.39e-05	0.001872	0.304	0.002063	0.02596	0.6652	3.22	0.002283	3.721e-07	1.316e-09	2.525e-05	0.0004713	0.9972	8.381e-09	1.656e-05	1.229e-05	5.382e-07	8.507e-06	0.0	0.0	1.317	1.0	0.0
1	2	10.425341509842204	-420855.08910999296	449.3654230781891	781.3679952674095	906.6157444584902	-0.8471291059317134	-0.3982424154804436	0.731401389200339	152.3	0.004026	0.000608	2.15e-06	1.487e-06	1.68e-06	0.09735	0.0001893	0.0007194	0.0006237	0.3749	0.1838	0.3378	0.0	197.6	0.003503	0.0005329	1.884e-06	1.297e-06	1.24e-06	0.07386	0.0001449	0.000388	0.0003602	0.4048	0.1988	1.143e-07	0.3176	0.0	0.0	80280.0	1.508e-05	2.329e-06	8.235e-09	5.582e-09	7.002e-10	4.347e-05	8.914e-08	2.18e-05	1.97e-05	0.0003842	0.0001893	7.813e-06	3.765e-08	0.002147	0.0	0.0	0.0	0.9972	0.8334	0.001463	0.1214	0.0004294	1.618e-05	0.0003053	0.876	1.812e-07	1.061e-05	0.000337	1.55e-05	0.0	0.0	0.0	1.317	1.0	0.0
2	4	23.10883914626513	-794071.5126764333	1899.2709113395535	290.63095473554813	1565.9052730027843	0.07130689892294129	-1.152854991588489	0.10220562572750169	2.539	0.9928	5.695e-07	2.014e-09	0.0003672	2.218e-07	1.382e-05	0.0005733	8.673e-05	5.636e-05	0.004245	0.00187	0.0	0.0	10960.0	2.091e-06	2.961e-07	1.047e-09	7.794e-10	8.73e-08	0.00601	6.798e-06	6.563e-10	3.713e-08	0.111	0.05521	6.711e-07	0.0	0.8277	0.0	17040000.0	6.847e-07	3.676e-13	1.3e-15	2.533e-10	1.064e-13	7.432e-09	3.001e-11	2.1e-08	1.912e-08	7.187e-10	3.577e-10	0.0001032	2.824e-09	0.0	0.9999	0.0	0.0	0.0	2090.0	9.738e-06	3.526e-09	1.247e-11	1.078e-07	2.012e-06	0.005738	2.5e-10	7.068e-08	1.19e-07	5.322e-09	0.994	6.966e-05	0.0001771	1.317	1.0	0.0
3	4	29.9343688549286	-218634.31741702533	981.9192242034242	694.7468302307763	915.3487402000414	0.9212317187980275	0.41334368457272697	0.35714960551837427	100.7	0.04052	7.613e-06	2.692e-08	1.5e-05	2.539e-06	0.1366	0.000324	0.0001835	0.0001712	0.5526	0.2696	0.0	0.0	70.4	0.1007	6.018e-06	2.128e-08	3.724e-05	1.971e-06	0.1141	0.0002485	3.756e-06	3.565e-06	0.5268	0.2582	2.434e-05	0.0	0.0	0.0	85.83	0.1016	4.579e-06	1.619e-08	3.758e-05	1.463e-06	0.09072	0.0001378	0.001264	0.001101	0.5009	0.2468	0.04353	0.01387	0.0	0.0	0.0	0.0	0.0	35.06	0.0005535	6.476e-08	2.29e-10	6.126e-06	0.0001143	0.3133	3.797e-09	4.017e-06	2.454e-06	1.043e-07	0.4296	0.2564	6.402e-05	1.317	1.0	0.0
4	3	33.05509321307708	-40570.27216180065	1770.6346195523142	998.6343130539102	1367.590853214127	-1.0589361139946678	0.0021579164215144164	1.1729905988173148	370.7	2.736e-05	0.001465	5.179e-06	1.03e-08	1.338e-06	0.08531	0.0001398	2.765e-06	2.06e-06	0.6112	0.3018	0.0	0.0	71.78	9.089e-06	0.04156	0.000147	3.419e-09	4.45e-07	0.03019	3.849e-05	1.271e-05	1.379e-05	0.4574	0.2271	0.2436	0.0	0.0	0.0	292.5	1.215e-05	0.008462	2.992e-05	4.574e-09	5.943e-07	0.04031	5.112e-05	1.797e-05	1.944e-05	0.6282	0.3119	0.01108	1.847e-12	0.0	0.0	0.0	0.0	0.0	348.0	9.895e-11	0.01152	4.074e-05	1.046e-12	2.582e-09	0.0001951	1.371e-10	6.849e-13	3.189e-07	1.469e-08	0.4342	0.31	0.244	1.317	1.0	0.0
5	4	25.296767516821465	-726953.6409661635	1024.5999222726741	56.33195022990468	1551.0986966852565	0.5669749502778436	-0.6883822270664758	-1.153585103476807	0.6793	0.9953	2.954e-05	1.051e-07	0.0003674	1.601e-05	0.0	0.004261	7.054e-05	0.0	1.909e-08	5.923e-09	0.0	0.0	35590000.0	2.623e-08	2.829e-11	1e-13	9.693e-12	9.698e-12	4.432e-07	1.156e-09	2.591e-10	2.215e-10	1.313e-06	6.348e-07	6.068e-12	0.0	1.0	0.0	12290000.0	9.996e-07	4.375e-13	1.547e-15	3.698e-10	1.297e-13	9.034e-09	8.229e-11	2.357e-07	2.145e-07	3.487e-10	1.733e-10	7.919e-05	1.196e-05	3.44e-05	0.6919	0.0258	0.2822	0.0	304.7	4.717e-05	1.089e-08	3.85e-11	5.22e-07	9.744e-06	0.02691	4.282e-10	3.423e-07	3.959e-07	1.749e-08	0.9084	0.06459	0.0	1.317	1.0	0.0
7	2	14.48308305486606	602975.2727338527	606.6670964016398	1222.2536442005685	1914.584188816968	-0.5213346222875388	-1.1232502421390649	0.4973805095276007	32880.0	9.538e-05	1.542e-05	5.452e-08	3.529e-08	1.191e-09	7.972e-05	1.207e-07	2.343e-05	2.137e-05	0.0006244	0.0003095	0.01462	0.9842	196300.0	6.837e-06	1.137e-06	4.022e-09	2.527e-09	3.048e-09	0.0002086	2.372e-07	4.715e-06	4.189e-06	0.003134	0.001557	5.046e-05	0.002438	0.0	0.9926	583800.0	5.811e-06	1.002e-06	3.543e-09	2.152e-09	5.877e-10	4.108e-05	4.392e-08	3.2e-06	2.98e-06	0.001393	0.0006935	0.0004799	8.694e-06	0.003633	0.0	0.0	0.0	0.9937	1.967	0.001537	0.134	0.0004739	1.701e-05	0.0003183	0.8635	5.353e-08	1.116e-05	0.000107	4.905e-06	0.0	0.0	0.0	1.317	1.0	0.0
8	4	46.498636027013745	22196.90100613539	1776.3195503075458	430.8403827433473	1388.0933754023883	1.0989124892777156	0.6672983096237708	0.8077031984811325	2.664	0.9971	5.111e-05	1.809e-07	0.0003683	2.307e-05	0.0	0.002118	1.615e-06	1.636e-06	0.0002796	3.755e-05	0.0	0.0	10530.0	0.0006841	4.152e-08	1.468e-10	2.531e-07	1.499e-08	0.000328	1.436e-06	3.229e-09	2.567e-08	0.0009905	0.0004659	1.607e-05	0.0	0.9975	0.0	15160.0	0.002474	1.374e-09	4.858e-12	9.152e-07	4.123e-10	2.803e-05	3.254e-07	4.89e-09	5.3e-09	0.0005778	0.0002869	0.02782	0.02055	0.0	0.2668	0.1108	0.5706	0.0	1825.0	4.263e-05	9.329e-10	3.299e-12	4.718e-07	8.805e-06	0.02479	7.741e-10	3.094e-07	4.58e-08	1.419e-09	0.5031	0.417	0.05508	1.317	1.0	0.0
9	1	24.79408736187439	923823.2668478426	1845.6463998909555	1151.901562990013	1850.3037259240516	-0.23881591082907017	-1.1275820944503536	-0.9455565290838652	5.721	3.051e-05	4.854e-06	1.716e-08	1.143e-08	1.499e-06	0.09951	0.0001481	0.003017	0.002761	0.5983	0.2963	0.0	0.0	1826.0	6.818e-06	1.158e-06	4.096e-09	2.566e-09	3.335e-07	0.02327	2.283e-05	7.742e-05	7.474e-05	0.5709	0.2842	0.1214	1.527e-12	0.0	0.0	3233.0	3.562e-06	6.198e-07	2.192e-09	1.34e-09	1.742e-07	0.01227	1.031e-05	0.0001717	0.0001526	0.5013	0.2498	0.2095	0.000171	0.02664	0.0	0.0	0.0	0.0	456.3	1.39e-10	1.363e-08	4.821e-11	1.47e-12	3.626e-09	0.0002743	1.926e-10	9.62e-13	4.483e-07	2.065e-08	0.9997	0.0	0.0	1.317	1.0	0.0
10	2	6.978795143442065	912906.2450850361	333.71533857791474	1437.2054906512565	1815.2666233806135	0.35036464217031726	-1.2316651203874414	1.2602277792406733	13760.0	6.299e-05	1.042e-05	3.686e-08	2.332e-08	2.05e-09	0.0001426	2.343e-07	2.195e-06	2.074e-06	0.001691	0.0008399	0.1157	0.8816	82480.0	8.531e-06	1.459e-06	5.159e-09	3.162e-09	4.788e-09	0.0003336	3.485e-07	1.916e-06	1.884e-06	0.01114	0.005543	0.0005574	0.02211	0.0	0.9603	9266.0	4.79e-05	8.357e-06	2.955e-08	1.766e-08	8.396e-08	0.005892	5.098e-06	2.037e-06	1.481e-06	0.1463	0.07286	0.01849	5.766e-05	0.2827	0.0	0.0	0.0	0.4736	0.4153	0.001028	0.08108	0.0002867	1.136e-05	0.0002238	0.9164	6.296e-07	7.456e-06	0.0009195	4.234e-05	0.0	0.0	0.0	1.317	1.0	0.0
11	2	13.689114956518091	872445.3654507489	1925.6903657576208	246.01403693325824	905.7618608910822	1.5186040410780999	0.014792446447524643	-0.9631896486117439	3.639	0.0006345	7.753e-05	2.742e-07	2.407e-07	5.607e-05	0.0	0.0007233	2.835e-05	0.0001064	0.7026	0.2958	0.0	0.0	3.676	0.6194	0.09566	0.0003383	0.0002292	8.809e-07	0.05872	0.0002682	0.0003574	0.0003199	5.91e-06	2.911e-06	0.03288	0.0	0.1918	0.0	128.7	0.0195	0.003065	1.084e-05	7.216e-06	1.51e-08	0.001017	4.514e-06	3.052e-05	2.729e-05	0.001629	0.0008047	2.046e-07	0.003403	0.0	0.9705	0.0	0.0	0.0	1975.0	3.66e-06	0.0003786	1.339e-06	4.05e-08	7.587e-07	0.002346	2.29e-10	2.656e-08	3.541e-07	1.625e-08	0.0007282	0.5545	0.442	1.317	1.0	0.0
12	1	47.178347103966175	762691.6962250078	106.16424534632584	1242.8061718881077	1712.7377901355176	-0.33349743617492367	0.5820658726885632	-1.4124008752328727	54140000.0	2.441e-10	3.837e-11	1.357e-13	9.194e-14	1.194e-11	7.773e-07	1.193e-09	1.797e-06	1.601e-06	6.854e-06	3.39e-06	9.757e-07	1.0	410700000.0	2.929e-12	4.699e-13	1.662e-15	1.103e-15	1.433e-13	9.581e-09	1.317e-11	1.737e-06	1.552e-06	9.682e-08	4.801e-08	3.203e-12	2.768e-06	0.0	1.0	155900000.0	1.516e-13	2.567e-14	9.076e-17	5.642e-17	7.49e-15	5.225e-10	5.687e-13	1.612e-06	1.455e-06	2.859e-09	1.422e-09	1.451e-07	9.881e-07	2.076e-05	0.0	0.0	0.0	1.0	1.479e-07	0.01101	0.6678	0.002363	0.0001156	0.2857	0.0177	0.01518	7.598e-05	4.188e-05	1.929e-06	0.0	0.0	0.0	1.317	0.9998	0.0002023
13	3	0.05659763564694088	906057.7745879949	1089.8896004861463	362.5780857586159	925.0455213225805	-1.161755296810849	-0.631320984718812	0.596725879596463	1315.0	0.001207	5.97e-08	2.111e-10	4.469e-07	5.983e-05	0.9897	0.008012	2.211e-05	4.306e-06	0.000674	0.0003097	0.0	0.0	1376000.0	5.701e-07	1.11e-09	3.925e-12	2.051e-10	2.887e-08	0.001995	4.026e-06	1.255e-08	4.809e-09	0.0001406	6.93e-05	1.405e-05	0.0	0.9978	0.0	4618000.0	9.961e-07	6.103e-11	2.158e-13	3.669e-10	4.959e-08	0.003411	4.871e-06	7.801e-08	5.637e-08	1.906e-05	9.455e-06	9.394e-05	1.273e-06	5.144e-06	0.9952	0.0	0.001258	0.0	15270.0	5.074e-07	4.737e-10	1.675e-12	5.358e-09	1.324e-05	0.9806	7.031e-07	3.512e-09	0.001603	7.381e-05	0.01764	8.337e-05	0.0	1.317	1.0	0.0
14	2	45.72904167022763	317714.4087572319	1857.2861681163886	1111.5054190856583	1519.530532906614	0.42265343293939406	1.081343381866839	-1.4551163735864234	61.79	0.471	0.07505	0.0002654	0.0001743	4.344e-07	0.02845	0.0001226	0.0003929	0.0003447	0.2838	0.1404	0.0	0.0	514.0	0.06019	0.01004	3.552e-05	2.227e-05	3.924e-07	0.02693	4.821e-05	0.0004366	0.0003867	0.5013	0.2492	0.1514	0.0	0.0	0.0	1933000.0	7.776e-06	1.388e-06	4.908e-09	2.875e-09	5.422e-10	3.834e-05	2.494e-08	9.257e-08	9.043e-08	0.00176	0.0008776	0.0002837	2.298e-05	9.862e-05	0.9969	0.0	0.0	0.0	630.5	0.000124	0.01276	4.513e-05	1.372e-06	2.561e-05	0.07219	2.474e-09	8.999e-07	1.395e-07	4.417e-09	0.8301	0.08479	0.0	1.317	1.0	0.0
15	1	20.539394212366503	191194.75140678044	1764.0379038792971	1296.3651980538534	1856.9139064845995	0.34908125542929347	-1.5639274925784445	0.9179435129406248	0.1447	0.000266	4.409e-05	1.559e-07	9.575e-08	1.348e-05	0.948	0.001441	4.266e-06	1.642e-06	0.03357	0.01666	0.0	0.0	2426.0	6.64e-06	1.129e-06	3.991e-09	2.499e-09	3.248e-07	0.02266	2.217e-05	1.035e-06	6.074e-07	0.634	0.3156	0.02766	5.002e-05	0.0	0.0	2351.0	3.268e-06	5.694e-07	2.013e-09	1.23e-09	1.598e-07	0.01126	9.367e-06	2.265e-06	1.668e-06	0.3688	0.1838	0.3253	2.688e-07	0.1108	0.0	0.0	0.0	0.0	167.6	5.305e-10	5.17e-08	1.828e-10	5.608e-12	1.384e-08	0.001046	7.351e-10	3.672e-12	1.709e-06	7.872e-08	0.999	0.0	0.0	1.317	1.0	0.0
16	3	7.676709312400228	-582945.9669089527	478.6476007006702	625.5711491731646	846.9882904062658	1.0668080862128595	0.1289461011925621	0.3524667909355368	107.9	6.387e-05	0.0001768	6.25e-07	2.407e-08	3.125e-06	0.1536	0.0003726	0.0001136	0.0001081	0.5632	0.2733	0.009143	0.0	74.51	1.294e-05	0.001175	4.153e-06	4.84e-09	6.366e-07	0.03774	7.827e-05	7.69e-05	6.564e-05	0.1067	0.05227	0.003713	0.7982	0.0	0.0	138.1	1.483e-05	0.0006295	2.226e-06	5.583e-09	7.257e-07	0.04374	8.19e-05	0.00102	0.0008998	0.1225	0.06021	0.005808	2.139e-05	0.7651	0.0	0.0	0.0	0.0	0.4038	5.209e-07	0.1447	0.0005118	5.496e-09	1.359e-05	0.8533	7.216e-07	3.605e-09	0.001394	6.419e-05	0.0	0.0	0.0	1.317	1.0	0.0
19	4	3.2488745261539695	148185.41732533183	1935.5831897939615	1482.2762530888992	1797.3411266449586	0.24568214642504227	0.14570839568281913	0.21461045818538982	409.8	0.0004901	4.901e-07	1.733e-09	1.816e-07	1.457e-07	0.009984	1.272e-05	2.12e-07	3.161e-07	0.661	0.3285	0.0	0.0	1940.0	1.446e-05	1.866e-06	6.598e-09	5.29e-09	5.395e-07	0.03757	3.745e-05	6.754e-07	3.294e-07	0.6413	0.3192	0.001841	0.0	0.0	0.0	237.1	0.0009202	2.404e-06	8.501e-09	3.413e-07	6.981e-07	0.0491	5.52e-05	5.126e-07	2.608e-07	0.5196	0.2586	0.1717	1.9e-10	0.0	0.0	0.0	0.0	0.0	129.3	3.164e-06	2.939e-06	1.039e-08	3.5e-08	1.424e-06	0.06061	4.132e-08	2.295e-08	9.609e-05	4.425e-06	0.9143	0.008488	0.01649	1.317	1.0	0.0
20	3	41.01037984350905	-909285.888397773	216.95925658593876	787.6336293170756	1102.356926118325	-0.7848725188983164	0.48459400323452195	-0.16182740947079122	315400000.0	1.353e-11	5.301e-09	1.874e-11	5.099e-15	6.622e-13	3.851e-08	7.633e-11	2.896e-06	2.579e-06	1.744e-07	8.551e-08	4.843e-07	1.0	31520000.0	7.273e-11	7.769e-08	2.747e-10	2.739e-14	3.558e-12	2.166e-07	3.962e-10	2.698e-06	2.415e-06	1.204e-06	5.924e-07	1.102e-10	8.913e-06	0.0	1.0	400600000.0	1.507e-11	5.601e-09	1.98e-11	5.676e-15	7.373e-13	4.817e-08	7.295e-11	2.361e-06	2.124e-06	4.594e-07	2.273e-07	2.115e-08	1.691e-08	1.072e-06	0.0	0.0	0.0	1.0	0.76	5.053e-09	0.9947	0.003518	5.326e-11	1.316e-07	0.001801	6.992e-09	3.495e-11	2.956e-06	1.361e-07	0.0	0.0	0.0	1.317	1.0	0.0
22	1	47.08957312188846	507541.948086594	1542.8472720215204	758.780021038591	1680.5275506229736	0.18062117417861612	0.38933736701037214	1.4600209698584448	8.027	3.646e-05	5.425e-06	1.918e-08	1.374e-08	1.784e-06	0.1017	0.000208	0.03104	0.02718	0.5637	0.2761	0.0	0.0	957.0	1.647e-05	2.646e-06	9.358e-09	6.2e-09	8.055e-07	0.05396	7.342e-05	1.345e-05	1.513e-05	0.6322	0.3135	0.0001783	0.0	0.0	0.0	7374000.0	5.78e-12	9.735e-13	3.442e-15	2.159e-15	2.846e-13	1.979e-08	2.166e-11	8.867e-08	8.087e-08	2.186e-07	1.087e-07	0.0001011	5.72e-07	8.758e-07	0.9999	0.0	0.0	0.0	499.6	3.017e-11	2.885e-09	1.02e-11	3.188e-13	7.87e-10	5.925e-05	4.18e-11	2.088e-13	9.684e-08	4.46e-09	0.9971	0.002825	0.0	1.317	1.0	0.0
23	1	30.92753445621306	928083.5686730063	1826.4248541828424	235.41651807853532	720.8781440946557	0.9663973717487524	0.36093868314832234	-1.3877123459661624	1.863	0.001278	0.0001553	5.493e-07	4.822e-07	6.255e-05	0.0	0.0007095	0.0006338	0.0005683	0.7049	0.2917	0.0	0.0	13350000.0	1.156e-10	1.707e-11	6.035e-14	4.356e-14	5.659e-12	3.128e-07	6.684e-10	3.462e-11	2.929e-11	1.279e-06	6.251e-07	1.404e-06	0.0	1.0	0.0	46400000.0	9.634e-11	1.568e-11	5.544e-14	3.627e-14	4.713e-12	3.196e-07	4.055e-10	8.227e-09	7.61e-09	4.009e-06	1.99e-06	2.501e-06	4.126e-06	0.0	0.967	0.0	0.033	0.0	1853.0	2.18e-11	2.135e-09	7.55e-12	2.305e-13	5.688e-10	4.301e-05	3.021e-11	1.509e-13	7.03e-08	3.238e-09	0.3888	0.545	0.06614	1.317	1.0	0.0
24	1	42.40035543247822	-250767.9183591134	1832.4414624658689	59.271817184695074	726.7408055839559	0.1568826935540688	0.7910682947447589	-1.1351925423890856	2.472e-05	0.6644	0.06106	0.0002171	0.0002517	0.03269	0.0	0.02206	0.2193	0.0	6.407e-05	1.967e-05	0.0	0.0	10860000.0	2.516e-10	3.718e-11	1.315e-13	9.48e-14	1.231e-11	6.834e-07	1.449e-09	6.882e-10	6.575e-10	2.979e-06	1.456e-06	7.604e-06	0.0	1.0	0.0	15290000.0	5.294e-10	7.965e-11	2.816e-13	1.994e-13	2.59e-11	1.532e-06	2.952e-09	4.583e-10	3.663e-10	7.572e-06	3.718e-06	3.107e-06	1.606e-11	0.0	0.8983	0.0	0.1017	0.0	3136.0	6.874e-12	6.735e-10	2.382e-12	7.267e-14	1.793e-10	1.356e-05	9.525e-12	4.757e-14	2.217e-08	1.021e-09	0.628	0.2742	0.0978	1.317	1.0	0.0
25	2	24.303100469456915	-573243.1364574069	634.0532042602761	447.27424914847364	840.4475233643568	-0.6913919201745836	0.40371783778323334	0.6067424494208531	16.93	0.1543	0.02124	7.513e-05	5.705e-05	6.769e-06	0.1726	0.0008616	0.006599	0.005396	0.4339	0.205	0.0	0.0	206.1	0.01303	0.001989	7.033e-06	4.824e-06	1.649e-06	0.09895	0.0001956	0.001938	0.001758	0.5475	0.2691	0.02124	0.04432	0.0	0.0	4575000.0	1.909e-06	3.083e-07	1.09e-09	7.062e-10	9.38e-12	6.255e-07	1.399e-09	2.555e-06	2.323e-06	8.294e-06	4.111e-06	5.104e-05	5.275e-06	9.094e-05	0.9998	0.0	0.0	0.0	10.82	0.0008164	0.07169	0.0002535	9.034e-06	0.0001686	0.4338	5.018e-09	5.925e-06	7.473e-06	3.322e-07	0.4933	0.0	0.0	1.317	1.0	0.0
26	1	4.416920261084668	-430132.6441820954	687.198755222257	551.9461007856456	975.5768782119424	-0.6018764285285588	-0.24097945919500607	-1.3687051793943257	14.5	0.000179	2.529e-05	8.945e-08	6.743e-08	8.76e-06	0.3699	0.001027	7.928e-06	9.876e-06	0.4245	0.2043	0.0	0.0	172.2	1.051e-05	1.64e-06	5.798e-09	3.9e-09	5.201e-07	0.03399	5.989e-05	7.303e-08	2.062e-07	0.1244	0.06139	0.4103	0.3698	0.0	0.0	17200.0	6.47e-07	1.052e-07	3.719e-10	2.436e-10	3.165e-08	0.002145	2.74e-06	2.649e-06	2.684e-06	0.03674	0.01824	0.002036	0.0006472	0.007875	0.9323	0.0	0.0	0.0	3.721	2.313e-07	1.961e-05	6.936e-08	2.441e-09	6.032e-06	0.4232	3.204e-07	1.601e-09	0.0006915	3.185e-05	0.5761	0.0	0.0	1.317	1.0	0.0
28	3	22.287637025208696	390658.3516526164	1986.219335413837	737.4599233513627	1184.7903519829147	1.0509739354187926	-0.6315876063624457	-0.09246083370449076	106.6	4.765e-05	0.003628	1.283e-05	1.795e-08	2.331e-06	0.1306	0.0002735	6.242e-06	5.846e-06	0.5811	0.2843	0.0	0.0	79.58	4.248e-05	0.007007	2.478e-05	1.6e-08	2.079e-06	0.1207	0.0002403	3.804e-06	3.672e-06	0.5851	0.2869	5.383e-07	0.0	0.0	0.0	223.6	1.382e-05	0.004372	1.546e-05	5.205e-09	6.762e-07	0.04483	6.405e-05	2.718e-05	2.77e-05	0.3863	0.1914	0.1676	0.2054	0.0	0.0	0.0	0.0	0.0	2404.0	3.479e-11	0.0008504	3.007e-06	3.679e-13	9.076e-10	6.874e-05	4.821e-11	2.408e-13	1.124e-07	5.174e-09	0.3298	0.4345	0.2348	1.317	1.0	0.0
0	2	26.122839781422126	343778.60620053834	1165.8439132107715	87.11555143319221	1310.056845713161	-0.3910616585650104	-0.7657114621225596	0.92936509283965	1.249	0.9056	0.0911	0.0003227	0.0003343	5.398e-06	0.0	0.002613	1.773e-05	0.0	1.45e-07	3.401e-08	0.0	0.0	388900.0	4.057e-06	6.256e-07	2.212e-09	1.501e-09	1.237e-09	7.615e-05	1.351e-07	3.911e-10	1.685e-09	0.0004544	0.0002238	7.793e-05	0.0	0.9992	0.0	3691000.0	2.717e-06	4.437e-07	1.569e-09	1.006e-09	2.61e-11	1.759e-06	3.274e-09	3.776e-08	3.344e-08	2.624e-05	1.302e-05	0.0001558	1.736e-06	1.777e-06	0.9933	0.0	0.006449	0.0	490.4	3.489e-05	0.003362	1.189e-05	3.861e-07	7.207e-06	0.02007	3.63e-10	2.532e-07	2.612e-07	1.148e-08	0.9639	0.0126	0.0	1.317	1.0	0.0
1	3	44.10635642082616	-93609.57470342843	1628.5823632101517	773.6388368968667	849.3048788735969	1.1575963133928497	-1.5574458714903898	-0.4859079330610172	234.7	4.544e-05	7.186e-05	2.541e-07	1.712e-08	2.223e-06	0.1279	0.0002578	4.681e-07	1.788e-06	0.5851	0.2867	0.0	0.0	3.184	2.195e-06	0.9793	0.003463	7.979e-10	1.103e-07	0.007236	1.646e-05	2.661e-07	1.242e-07	0.006691	0.003279	1.25e-13	0.0	0.0	0.0	6.157	9.955e-06	0.5533	0.001957	3.75e-09	4.871e-07	0.02935	5.472e-05	0.002096	0.001898	0.2753	0.1353	1.234e-07	0.0006656	0.0	0.0	0.0	0.0	0.0	1193.0	1.508e-11	0.005501	1.945e-05	1.594e-13	3.934e-10	2.967e-05	2.09e-11	1.044e-13	4.849e-08	2.233e-09	0.00503	0.5432	0.4463	1.317	1.0	0.0
2	3	37.77395740955434	-865465.4191873457	1645.3636773323778	341.1779644585587	1845.9739529654498	0.7759809162166031	1.3949376426564113	0.18020140612901647	1.209	7.049e-05	0.8215	0.002905	2.653e-08	3.454e-06	0.0004077	0.0001556	0.00037	0.0002663	0.1198	0.05451	0.0	0.0	44670000.0	1.534e-10	1.75e-08	6.19e-11	5.78e-14	7.506e-12	4.267e-07	8.751e-10	2.27e-09	2.07e-09	1.96e-06	9.596e-07	4.558e-07	0.0	1.0	0.0	154000000.0	4.898e-11	2.359e-08	8.34e-11	1.844e-14	2.396e-12	1.671e-07	1.643e-10	3.069e-08	2.779e-08	4.038e-06	2.01e-06	8.073e-06	1.208e-07	1.234e-07	0.6474	0.3524	0.0001719	0.0	1486.0	1.665e-11	0.003273	1.157e-05	1.76e-13	4.345e-10	3.277e-05	2.308e-11	1.153e-13	5.357e-08	2.467e-09	0.8414	0.1552	0.0	1.317	1.0	0.0
3	1	9.071404660252007	218854.85818126844	130.94209424184893	1087.0616671331868	1715.556365643463	-0.179268120438401	-0.40153500380455087	0.13004286643599694	9261.0	4.497e-08	7.082e-09	2.504e-11	1.689e-11	2.205e-09	0.0001443	2.232e-07	1.812e-06	1.582e-06	0.0001767	8.74e-05	0.08529	0.9143	3206.0	2.798e-07	4.616e-08	1.632e-10	1.044e-10	1.379e-08	0.0009479	1.182e-06	8.357e-07	6.758e-07	0.007339	0.003646	0.0229	0.5874	0.0	0.3777	2539.0	7.878e-06	1.324e-06	4.682e-09	2.965e-09	3.854e-07	0.02674	2.804e-05	5.416e-07	3.088e-07	0.615	0.306	0.003303	5.187e-05	0.0363	0.0	0.0	0.0	0.01259	7.168e-06	0.007271	0.4598	0.001626	7.646e-05	0.189	0.3315	0.01004	5.024e-05	0.000599	2.759e-05	0.0	0.0	0.0	1.32	0.9974	0.002571
4	2	40.95940074020775	-348361.593567085	1346.4521381610743	313.47771244109964	321.62285466919184	-0.33490483781309743	-0.8154735544799226	-0.1987267326378388	8.876	0.8846	0.1126	0.0003982	0.0003272	6.754e-08	8.437e-06	0.0006148	0.0004723	0.0003189	0.0004937	0.0002171	0.0	0.0	9.483	0.8439	0.1091	0.0003858	0.0003121	1.337e-06	5.37e-05	0.0006647	0.0004385	0.000321	0.03094	0.01386	1.049e-06	0.0	0.0	0.0	10.73	0.04265	0.005534	1.957e-05	1.58e-05	2.238e-05	0.000233	0.0005519	4.709e-05	5.964e-05	0.6557	0.2951	1.713e-07	3.151e-12	0.0	0.0	0.0	0.0	0.0	1389.0	3.426e-05	0.003371	1.192e-05	3.792e-07	7.077e-06	0.01974	3.569e-10	2.487e-07	5.271e-08	1.878e-09	0.4946	0.4608	0.02138	1.317	1.0	0.0
0	2	4.076793163740502	-631893.0478420919	1839.4486711033217	1795.841539766244	1801.3021397140187	-1.1775860864863752	1.251259336528911	-0.883077682588526	2493.0	4.168e-05	7.093e-06	2.508e-08	1.553e-08	3.328e-07	0.02316	2.359e-05	1.007e-07	1.015e-07	0.6522	0.3246	0.0	0.0	188.4	0.001762	0.0003009	1.064e-06	6.527e-07	8.221e-07	0.05761	6.311e-05	9.911e-07	5.161e-07	0.6278	0.3125	1.852e-12	0.0	0.0	0.0	145.0	0.002141	0.0003666	1.296e-06	7.907e-07	1.515e-06	0.1056	0.0001013	1.02e-05	7.431e-06	0.5954	0.2964	8.916e-11	3.203e-11	0.0	0.0	0.0	0.0	0.0	5.045	0.0001222	0.01256	4.44e-05	1.352e-06	3.723e-05	0.9856	6.449e-07	8.865e-07	0.001495	6.887e-05	1.061e-05	4.497e-05	2.244e-05	1.317	1.0	0.0
